%YAML 1.1
%TAG !u! tag:unity3d.com,2011:
--- !u!114 &11400000
MonoBehaviour:
  m_ObjectHideFlags: 0
  m_CorrespondingSourceObject: {fileID: 0}
  m_PrefabInstance: {fileID: 0}
  m_PrefabAsset: {fileID: 0}
  m_GameObject: {fileID: 0}
  m_Enabled: 1
  m_EditorHideFlags: 0
  m_Script: {fileID: 11500000, guid: 75a15b721e807e046a7a3d5ec2c534cd, type: 3}
  m_Name: EnemyShip4
  m_EditorClassIdentifier: 
  id: 3
  speed: 8
  waitTimeToReset: 10
  shipPrefab: {fileID: 5293214112465216573, guid: 5577dc477bf89c446b7848666b538800,
    type: 3}
  laserPrefab: {fileID: 4286543096072176435, guid: 7328212a2988fcb40847b256247bc512,
    type: 3}
  speedLaser: 15
  waitTimeToShoot: 7
  maxSizePoolLasers: 5
  pointsWhenDestroyed: 20
  soundAtDestroy: {fileID: 8300000, guid: d56ea728ac1bc8f49be46fca043450d7, type: 3}
  soundEngine: {fileID: 8300000, guid: 35b638d62d3e73644ba18b70b73ba677, type: 3}
