%YAML 1.1
%TAG !u! tag:unity3d.com,2011:
--- !u!1 &8868481082784101240
GameObject:
  m_ObjectHideFlags: 0
  m_CorrespondingSourceObject: {fileID: 0}
  m_PrefabInstance: {fileID: 0}
  m_PrefabAsset: {fileID: 0}
  serializedVersion: 6
  m_Component:
  - component: {fileID: 8868481082784101242}
  - component: {fileID: 8868481082784101241}
  m_Layer: 0
  m_Name: PoolManager
  m_TagString: Untagged
  m_Icon: {fileID: 0}
  m_NavMeshLayer: 0
  m_StaticEditorFlags: 0
  m_IsActive: 1
--- !u!4 &8868481082784101242
Transform:
  m_ObjectHideFlags: 0
  m_CorrespondingSourceObject: {fileID: 0}
  m_PrefabInstance: {fileID: 0}
  m_PrefabAsset: {fileID: 0}
  m_GameObject: {fileID: 8868481082784101240}
  m_LocalRotation: {x: 0, y: 0, z: 0, w: 1}
  m_LocalPosition: {x: 0, y: 0, z: 0}
  m_LocalScale: {x: 1, y: 1, z: 1}
  m_Children: []
  m_Father: {fileID: 0}
  m_RootOrder: 0
  m_LocalEulerAnglesHint: {x: 0, y: 0, z: 0}
--- !u!114 &8868481082784101241
MonoBehaviour:
  m_ObjectHideFlags: 0
  m_CorrespondingSourceObject: {fileID: 0}
  m_PrefabInstance: {fileID: 0}
  m_PrefabAsset: {fileID: 0}
  m_GameObject: {fileID: 8868481082784101240}
  m_Enabled: 1
  m_EditorHideFlags: 0
  m_Script: {fileID: 11500000, guid: 0cec60bca04e541489b2f19408c4c152, type: 3}
  m_Name: 
  m_EditorClassIdentifier: 
  timerPrefab: {fileID: 1914717362036226588, guid: 54b930db60a645c459b4057ac70aea53,
    type: 3}
  timerGameObjectPrefab: {fileID: 1914717362036226588, guid: 02f9422184cf05d448d4d35fb89667a9,
    type: 3}
  explosionGameObject: {fileID: 7325662905230032343, guid: 8b82b3884cd2ec449a9a6394b8d74522,
    type: 3}
