# MagicaVoxel @ Ephtracy

# group
o 

# material
mtllib MotoPlayer.mtl
usemtl palette

# normals
vn -1 0 0
vn 1 0 0
vn 0 0 1
vn 0 0 -1
vn 0 -1 0
vn 0 1 0

# texcoords
vt 0.0214844 0.5
vt 0.841797 0.5
vt 0.876953 0.5
vt 0.958984 0.5
vt 0.974609 0.5
vt 0.978516 0.5
vt 0.982422 0.5

# verts
v 1 3.9 -2.7
v 1 3.9 -2.8
v 1 4.1 -2.7
v 1 4.1 -2.8
v 1 4.2 -2.7
v 1 4.2 -2.8
v 1.1 3.9 -2.6
v 1.1 3.9 -2.7
v 1.1 4 -2.6
v 1.1 4 -2.7
v 1.1 4.1 -2.6
v 1.1 4.1 -2.7
v 1.1 4.2 -2.6
v 1.1 4.2 -2.7
v 1.2 3.9 -2.5
v 1.2 3.9 -2.6
v 1.2 4 -2.5
v 1.2 4 -2.6
v 1.2 4.1 -2.5
v 1.2 4.1 -2.6
v 1.2 4.2 -2.5
v 1.2 4.2 -2.6
v 1.3 3.9 -2.4
v 1.3 3.9 -2.5
v 1.3 4 -2.5
v 1.3 4.1 -2.5
v 1.3 4.2 -2.4
v 1.3 4.2 -2.5
v 1.4 3.7 -0.9
v 1.4 3.7 -1.2
v 1.4 3.7 -1.8
v 1.4 3.7 -2
v 1.4 3.7 -2.2
v 1.4 3.7 -2.3
v 1.4 3.7 -2.4
v 1.4 3.7 -3.1
v 1.4 3.8 -0.8
v 1.4 3.8 -0.9
v 1.4 3.8 -1.2
v 1.4 3.8 -1.3
v 1.4 3.8 -1.7
v 1.4 3.8 -1.8
v 1.4 3.8 -2
v 1.4 3.8 -2.2
v 1.4 3.8 -2.3
v 1.4 3.8 -2.4
v 1.4 3.8 -2.5
v 1.4 3.8 -2.9
v 1.4 3.8 -3.1
v 1.4 3.9 -0.7
v 1.4 3.9 -0.8
v 1.4 3.9 -1.3
v 1.4 3.9 -1.7
v 1.4 3.9 -1.8
v 1.4 3.9 -1.9
v 1.4 3.9 -2.4
v 1.4 3.9 -2.5
v 1.4 3.9 -2.8
v 1.4 4 -0.7
v 1.4 4 -1.3
v 1.4 4 -1.8
v 1.4 4 -1.9
v 1.4 4 -2
v 1.4 4.1 -0.7
v 1.4 4.1 -0.8
v 1.4 4.1 -1.9
v 1.4 4.1 -2
v 1.4 4.1 -2.1
v 1.4 4.1 -2.8
v 1.4 4.1 -2.9
v 1.4 4.1 -3.1
v 1.4 4.2 -0.8
v 1.4 4.2 -0.9
v 1.4 4.2 -1.3
v 1.4 4.2 -1.4
v 1.4 4.2 -1.7
v 1.4 4.2 -2
v 1.4 4.2 -2.1
v 1.4 4.2 -2.2
v 1.4 4.2 -2.4
v 1.4 4.2 -2.8
v 1.4 4.3 -0.9
v 1.4 4.3 -1.4
v 1.4 4.3 -1.7
v 1.4 4.3 -2.1
v 1.4 4.3 -2.2
v 1.4 4.3 -2.8
v 1.5 3.7 -3.1
v 1.5 3.7 -3.2
v 1.5 3.8 -3.1
v 1.5 3.8 -3.2
v 1.5 4.1 -2.8
v 1.5 4.1 -2.9
v 1.5 4.1 -3.1
v 1.5 4.2 -3
v 1.5 4.2 -3.2
v 1.5 4.3 -1
v 1.5 4.3 -1.4
v 1.5 4.3 -1.7
v 1.5 4.3 -2.1
v 1.5 4.3 -2.2
v 1.5 4.3 -2.3
v 1.5 4.3 -2.8
v 1.5 4.4 -1
v 1.5 4.4 -1.4
v 1.5 4.4 -2.2
v 1.5 4.4 -2.3
v 1.5 4.4 -2.4
v 1.5 4.5 -1.7
v 1.5 4.5 -2.3
v 1.5 4.5 -2.4
v 1.5 4.5 -2.9
v 1.5 4.5 -3
v 1.6 3.6 -0.7
v 1.6 3.6 -1.4
v 1.6 3.6 -1.6
v 1.6 3.6 -1.7
v 1.6 3.6 -2
v 1.6 3.6 -2.2
v 1.6 3.6 -2.3
v 1.6 3.6 -3.3
v 1.6 3.7 -0.9
v 1.6 3.7 -1.2
v 1.6 3.7 -1.8
v 1.6 3.7 -2
v 1.6 3.7 -2.2
v 1.6 3.7 -2.3
v 1.6 3.7 -3.2
v 1.6 3.8 -0.8
v 1.6 3.8 -0.9
v 1.6 3.8 -1.2
v 1.6 3.8 -1.3
v 1.6 3.8 -1.4
v 1.6 3.8 -1.6
v 1.6 3.8 -1.7
v 1.6 3.8 -1.8
v 1.6 3.8 -3.2
v 1.6 3.8 -3.3
v 1.6 3.9 -0.7
v 1.6 3.9 -0.8
v 1.6 3.9 -1.3
v 1.6 3.9 -1.7
v 1.6 4.1 -0.7
v 1.6 4.1 -0.8
v 1.6 4.2 -0.8
v 1.6 4.2 -0.9
v 1.6 4.2 -3
v 1.6 4.2 -3.2
v 1.6 4.3 -0.9
v 1.6 4.3 -1
v 1.6 4.4 -0.7
v 1.6 4.4 -1
v 1.6 4.4 -3
v 1.6 4.4 -3.3
v 1.7 4.2 -0.6
v 1.7 4.2 -0.7
v 1.7 4.3 -0.6
v 1.7 4.3 -0.7
v 1.7 4.4 -3
v 1.7 4.4 -3.2
v 1.7 4.4 -3.3
v 1.7 4.5 -3
v 1.7 4.5 -3.2
v 1.7 4.5 -3.3
v 1.8 3.6 -0.6
v 1.8 3.6 -0.7
v 1.8 4 -0.6
v 1.8 4 -0.7
v 1.8 4.4 -0.7
v 1.8 4.4 -1.2
v 1.8 4.4 -1.3
v 1.8 4.5 -0.7
v 1.8 4.5 -1.2
v 1.8 4.5 -1.3
v 1.9 4.1 -0.6
v 1.9 4.1 -0.7
v 1.9 4.2 -0.6
v 1.9 4.2 -0.7
v 1.9 4.5 -2.1
v 1.9 4.5 -2.3
v 1.9 4.5 -2.6
v 1.9 4.5 -2.7
v 1.9 4.6 -2.5
v 1.9 4.6 -2.7
v 1.9 4.7 -2.3
v 1.9 4.7 -2.5
v 1.9 4.8 -2.1
v 1.9 4.8 -2.3
v 2.1 4.2 -1.2
v 2.1 4.2 -1.3
v 2.1 4.5 -1.2
v 2.1 4.5 -1.3
v 2.2 3.9 -3.2
v 2.2 3.9 -3.3
v 2.2 4.1 -3.2
v 2.2 4.1 -3.3
v 2.2 4.2 -1.3
v 2.2 4.2 -1.4
v 2.2 4.2 -3.2
v 2.2 4.2 -3.3
v 2.2 4.4 -1.3
v 2.2 4.4 -1.4
v 2.2 4.4 -3.2
v 2.2 4.4 -3.3
v 2.3 3.6 -3.1
v 2.3 3.6 -3.3
v 2.3 3.7 -3.1
v 2.3 3.7 -3.2
v 2.3 3.8 -3.2
v 2.3 3.8 -3.3
v 1.7 3.6 -3.1
v 1.7 3.6 -3.3
v 1.7 3.7 -3.1
v 1.7 3.7 -3.2
v 1.7 3.8 -3.2
v 1.7 3.8 -3.3
v 1.8 3.9 -3.2
v 1.8 3.9 -3.3
v 1.8 4.1 -3.2
v 1.8 4.1 -3.3
v 1.8 4.2 -1.3
v 1.8 4.2 -1.4
v 1.8 4.2 -3.2
v 1.8 4.2 -3.3
v 1.8 4.4 -1.3
v 1.8 4.4 -1.4
v 1.8 4.4 -3.2
v 1.8 4.4 -3.3
v 1.9 4.2 -1.2
v 1.9 4.2 -1.3
v 1.9 4.5 -1.2
v 1.9 4.5 -1.3
v 2.1 4.1 -0.6
v 2.1 4.1 -0.7
v 2.1 4.2 -0.6
v 2.1 4.2 -0.7
v 2.1 4.5 -2.1
v 2.1 4.5 -2.3
v 2.1 4.5 -2.6
v 2.1 4.5 -2.7
v 2.1 4.6 -2.5
v 2.1 4.6 -2.7
v 2.1 4.7 -2.3
v 2.1 4.7 -2.5
v 2.1 4.8 -2.1
v 2.1 4.8 -2.3
v 2.2 3.6 -0.6
v 2.2 3.6 -0.7
v 2.2 4 -0.6
v 2.2 4 -0.7
v 2.2 4.4 -0.7
v 2.2 4.4 -1.2
v 2.2 4.4 -1.3
v 2.2 4.5 -0.7
v 2.2 4.5 -1.2
v 2.2 4.5 -1.3
v 2.3 4.2 -0.6
v 2.3 4.2 -0.7
v 2.3 4.3 -0.6
v 2.3 4.3 -0.7
v 2.3 4.4 -3
v 2.3 4.4 -3.2
v 2.3 4.4 -3.3
v 2.3 4.5 -3
v 2.3 4.5 -3.2
v 2.3 4.5 -3.3
v 2.4 3.6 -0.7
v 2.4 3.6 -1.4
v 2.4 3.6 -1.6
v 2.4 3.6 -1.7
v 2.4 3.6 -2
v 2.4 3.6 -2.2
v 2.4 3.6 -2.3
v 2.4 3.6 -3.3
v 2.4 3.7 -0.9
v 2.4 3.7 -1.2
v 2.4 3.7 -1.8
v 2.4 3.7 -2
v 2.4 3.7 -2.2
v 2.4 3.7 -2.3
v 2.4 3.7 -3.2
v 2.4 3.8 -0.8
v 2.4 3.8 -0.9
v 2.4 3.8 -1.2
v 2.4 3.8 -1.3
v 2.4 3.8 -1.4
v 2.4 3.8 -1.6
v 2.4 3.8 -1.7
v 2.4 3.8 -1.8
v 2.4 3.8 -3.2
v 2.4 3.8 -3.3
v 2.4 3.9 -0.7
v 2.4 3.9 -0.8
v 2.4 3.9 -1.3
v 2.4 3.9 -1.7
v 2.4 4.1 -0.7
v 2.4 4.1 -0.8
v 2.4 4.2 -0.8
v 2.4 4.2 -0.9
v 2.4 4.2 -3
v 2.4 4.2 -3.2
v 2.4 4.3 -0.9
v 2.4 4.3 -1
v 2.4 4.4 -0.7
v 2.4 4.4 -1
v 2.4 4.4 -3
v 2.4 4.4 -3.3
v 2.5 3.7 -3.1
v 2.5 3.7 -3.2
v 2.5 3.8 -3.1
v 2.5 3.8 -3.2
v 2.5 4.1 -2.8
v 2.5 4.1 -2.9
v 2.5 4.1 -3.1
v 2.5 4.2 -3
v 2.5 4.2 -3.2
v 2.5 4.3 -1
v 2.5 4.3 -1.4
v 2.5 4.3 -1.7
v 2.5 4.3 -2.1
v 2.5 4.3 -2.2
v 2.5 4.3 -2.3
v 2.5 4.3 -2.8
v 2.5 4.4 -1
v 2.5 4.4 -1.4
v 2.5 4.4 -2.2
v 2.5 4.4 -2.3
v 2.5 4.4 -2.4
v 2.5 4.5 -1.7
v 2.5 4.5 -2.3
v 2.5 4.5 -2.4
v 2.5 4.5 -2.9
v 2.5 4.5 -3
v 2.6 3.7 -0.9
v 2.6 3.7 -1.2
v 2.6 3.7 -1.8
v 2.6 3.7 -2
v 2.6 3.7 -2.2
v 2.6 3.7 -2.3
v 2.6 3.7 -2.4
v 2.6 3.7 -3.1
v 2.6 3.8 -0.8
v 2.6 3.8 -0.9
v 2.6 3.8 -1.2
v 2.6 3.8 -1.3
v 2.6 3.8 -1.7
v 2.6 3.8 -1.8
v 2.6 3.8 -2
v 2.6 3.8 -2.2
v 2.6 3.8 -2.3
v 2.6 3.8 -2.4
v 2.6 3.8 -2.5
v 2.6 3.8 -2.9
v 2.6 3.8 -3.1
v 2.6 3.9 -0.7
v 2.6 3.9 -0.8
v 2.6 3.9 -1.3
v 2.6 3.9 -1.7
v 2.6 3.9 -1.8
v 2.6 3.9 -1.9
v 2.6 3.9 -2.4
v 2.6 3.9 -2.5
v 2.6 3.9 -2.8
v 2.6 4 -0.7
v 2.6 4 -1.4
v 2.6 4 -1.8
v 2.6 4 -1.9
v 2.6 4 -2
v 2.6 4.1 -0.7
v 2.6 4.1 -0.8
v 2.6 4.1 -1.9
v 2.6 4.1 -2
v 2.6 4.1 -2.1
v 2.6 4.1 -2.8
v 2.6 4.1 -2.9
v 2.6 4.1 -3.1
v 2.6 4.2 -0.8
v 2.6 4.2 -0.9
v 2.6 4.2 -1.4
v 2.6 4.2 -1.7
v 2.6 4.2 -2
v 2.6 4.2 -2.1
v 2.6 4.2 -2.2
v 2.6 4.2 -2.4
v 2.6 4.2 -2.8
v 2.6 4.3 -0.9
v 2.6 4.3 -1.4
v 2.6 4.3 -1.7
v 2.6 4.3 -2.1
v 2.6 4.3 -2.2
v 2.6 4.3 -2.8
v 2.7 3.9 -2.4
v 2.7 3.9 -2.5
v 2.7 4 -2.5
v 2.7 4.1 -2.5
v 2.7 4.2 -2.4
v 2.7 4.2 -2.5
v 2.8 3.9 -2.5
v 2.8 3.9 -2.6
v 2.8 4 -2.5
v 2.8 4 -2.6
v 2.8 4.1 -2.5
v 2.8 4.1 -2.6
v 2.8 4.2 -2.5
v 2.8 4.2 -2.6
v 2.9 3.9 -2.6
v 2.9 3.9 -2.7
v 2.9 4 -2.6
v 2.9 4 -2.7
v 2.9 4.1 -2.6
v 2.9 4.1 -2.7
v 2.9 4.2 -2.6
v 2.9 4.2 -2.7
v 3 3.9 -2.7
v 3 3.9 -2.8
v 3 4.1 -2.7
v 3 4.1 -2.8
v 3 4.2 -2.7
v 3 4.2 -2.8
v 1.7 4.2 -0.6
v 1.7 4.3 -0.6
v 1.8 3.6 -0.6
v 1.8 4 -0.6
v 1.9 4.1 -0.6
v 1.9 4.2 -0.6
v 2.1 4.1 -0.6
v 2.1 4.2 -0.6
v 2.2 3.6 -0.6
v 2.2 4 -0.6
v 2.3 4.2 -0.6
v 2.3 4.3 -0.6
v 1.4 3.9 -0.7
v 1.4 4 -0.7
v 1.4 4.1 -0.7
v 1.6 3.6 -0.7
v 1.6 3.9 -0.7
v 1.6 4.1 -0.7
v 1.6 4.4 -0.7
v 1.7 4.2 -0.7
v 1.7 4.3 -0.7
v 1.8 3.6 -0.7
v 1.8 4 -0.7
v 1.8 4.4 -0.7
v 1.8 4.5 -0.7
v 1.9 4.1 -0.7
v 1.9 4.2 -0.7
v 1.9 4.3 -0.7
v 1.9 4.5 -0.7
v 2.1 4.1 -0.7
v 2.1 4.2 -0.7
v 2.1 4.3 -0.7
v 2.1 4.5 -0.7
v 2.2 3.6 -0.7
v 2.2 4 -0.7
v 2.2 4.4 -0.7
v 2.2 4.5 -0.7
v 2.3 4.2 -0.7
v 2.3 4.3 -0.7
v 2.4 3.6 -0.7
v 2.4 3.9 -0.7
v 2.4 4.1 -0.7
v 2.4 4.4 -0.7
v 2.6 3.9 -0.7
v 2.6 4 -0.7
v 2.6 4.1 -0.7
v 1.4 3.8 -0.8
v 1.4 3.9 -0.8
v 1.4 4.1 -0.8
v 1.4 4.2 -0.8
v 1.6 3.8 -0.8
v 1.6 3.9 -0.8
v 1.6 4.1 -0.8
v 1.6 4.2 -0.8
v 2.4 3.8 -0.8
v 2.4 3.9 -0.8
v 2.4 4.1 -0.8
v 2.4 4.2 -0.8
v 2.6 3.8 -0.8
v 2.6 3.9 -0.8
v 2.6 4.1 -0.8
v 2.6 4.2 -0.8
v 1.4 3.7 -0.9
v 1.4 3.8 -0.9
v 1.4 4.2 -0.9
v 1.4 4.3 -0.9
v 1.6 3.7 -0.9
v 1.6 3.8 -0.9
v 1.6 4.2 -0.9
v 1.6 4.3 -0.9
v 2.4 3.7 -0.9
v 2.4 3.8 -0.9
v 2.4 4.2 -0.9
v 2.4 4.3 -0.9
v 2.6 3.7 -0.9
v 2.6 3.8 -0.9
v 2.6 4.2 -0.9
v 2.6 4.3 -0.9
v 1.5 4.3 -1
v 1.5 4.4 -1
v 1.6 4.3 -1
v 1.6 4.4 -1
v 2.4 4.3 -1
v 2.4 4.4 -1
v 2.5 4.3 -1
v 2.5 4.4 -1
v 1.6 3.6 -1.6
v 1.6 3.8 -1.6
v 2.4 3.6 -1.6
v 2.4 3.8 -1.6
v 1.4 3.8 -1.7
v 1.4 3.9 -1.7
v 1.4 4.2 -1.7
v 1.4 4.3 -1.7
v 1.5 3.8 -1.7
v 1.5 3.9 -1.7
v 1.5 4.2 -1.7
v 1.5 4.3 -1.7
v 1.5 4.5 -1.7
v 1.6 3.8 -1.7
v 1.6 3.9 -1.7
v 1.6 4.2 -1.7
v 1.6 4.3 -1.7
v 1.6 4.4 -1.7
v 1.7 4.3 -1.7
v 1.7 4.4 -1.7
v 1.7 4.5 -1.7
v 1.8 4.4 -1.7
v 1.8 4.5 -1.7
v 2.2 4.4 -1.7
v 2.2 4.5 -1.7
v 2.3 4.3 -1.7
v 2.3 4.4 -1.7
v 2.3 4.5 -1.7
v 2.4 3.8 -1.7
v 2.4 3.9 -1.7
v 2.4 4.2 -1.7
v 2.4 4.3 -1.7
v 2.4 4.4 -1.7
v 2.5 3.8 -1.7
v 2.5 3.9 -1.7
v 2.5 4.2 -1.7
v 2.5 4.3 -1.7
v 2.5 4.5 -1.7
v 2.6 3.8 -1.7
v 2.6 3.9 -1.7
v 2.6 4.2 -1.7
v 2.6 4.3 -1.7
v 1.4 3.7 -1.8
v 1.4 3.8 -1.8
v 1.5 3.8 -1.8
v 1.6 3.7 -1.8
v 1.6 3.8 -1.8
v 2.4 3.7 -1.8
v 2.4 3.8 -1.8
v 2.5 3.8 -1.8
v 2.6 3.7 -1.8
v 2.6 3.8 -1.8
v 1.9 4.5 -2.1
v 1.9 4.8 -2.1
v 2.1 4.5 -2.1
v 2.1 4.8 -2.1
v 1.3 3.9 -2.4
v 1.3 4.2 -2.4
v 1.4 3.9 -2.4
v 1.4 4.2 -2.4
v 2.6 3.9 -2.4
v 2.6 4.2 -2.4
v 2.7 3.9 -2.4
v 2.7 4.2 -2.4
v 1.2 3.9 -2.5
v 1.2 4 -2.5
v 1.2 4.1 -2.5
v 1.2 4.2 -2.5
v 1.3 3.9 -2.5
v 1.3 4 -2.5
v 1.3 4.1 -2.5
v 1.3 4.2 -2.5
v 2.7 3.9 -2.5
v 2.7 4 -2.5
v 2.7 4.1 -2.5
v 2.7 4.2 -2.5
v 2.8 3.9 -2.5
v 2.8 4 -2.5
v 2.8 4.1 -2.5
v 2.8 4.2 -2.5
v 1.1 3.9 -2.6
v 1.1 4 -2.6
v 1.1 4.1 -2.6
v 1.1 4.2 -2.6
v 1.2 3.9 -2.6
v 1.2 4 -2.6
v 1.2 4.1 -2.6
v 1.2 4.2 -2.6
v 2.8 3.9 -2.6
v 2.8 4 -2.6
v 2.8 4.1 -2.6
v 2.8 4.2 -2.6
v 2.9 3.9 -2.6
v 2.9 4 -2.6
v 2.9 4.1 -2.6
v 2.9 4.2 -2.6
v 1 3.9 -2.7
v 1 4.1 -2.7
v 1 4.2 -2.7
v 1.1 3.9 -2.7
v 1.1 4 -2.7
v 1.1 4.1 -2.7
v 1.1 4.2 -2.7
v 2.9 3.9 -2.7
v 2.9 4 -2.7
v 2.9 4.1 -2.7
v 2.9 4.2 -2.7
v 3 3.9 -2.7
v 3 4.1 -2.7
v 3 4.2 -2.7
v 1.4 3.7 -1.2
v 1.4 3.8 -1.2
v 1.6 3.7 -1.2
v 1.6 3.8 -1.2
v 1.9 4.2 -1.2
v 1.9 4.5 -1.2
v 2.1 4.2 -1.2
v 2.1 4.5 -1.2
v 2.4 3.7 -1.2
v 2.4 3.8 -1.2
v 2.6 3.7 -1.2
v 2.6 3.8 -1.2
v 1.4 3.8 -1.3
v 1.4 3.9 -1.3
v 1.6 3.8 -1.3
v 1.6 3.9 -1.3
v 1.8 4.2 -1.3
v 1.8 4.4 -1.3
v 1.8 4.5 -1.3
v 1.9 4.2 -1.3
v 1.9 4.5 -1.3
v 2.1 4.2 -1.3
v 2.1 4.5 -1.3
v 2.2 4.2 -1.3
v 2.2 4.4 -1.3
v 2.2 4.5 -1.3
v 2.4 3.8 -1.3
v 2.4 3.9 -1.3
v 2.6 3.8 -1.3
v 2.6 3.9 -1.3
v 1.4 4.2 -1.4
v 1.4 4.3 -1.4
v 1.5 4.3 -1.4
v 1.5 4.4 -1.4
v 1.6 3.6 -1.4
v 1.6 3.8 -1.4
v 1.6 4.2 -1.4
v 1.6 4.3 -1.4
v 1.8 4.2 -1.4
v 1.8 4.4 -1.4
v 2.2 4.2 -1.4
v 2.2 4.4 -1.4
v 2.4 3.6 -1.4
v 2.4 3.8 -1.4
v 2.5 4.2 -1.4
v 2.5 4.3 -1.4
v 2.5 4.4 -1.4
v 2.6 4.2 -1.4
v 2.6 4.3 -1.4
v 1.9 4.7 -2.3
v 1.9 4.8 -2.3
v 2.1 4.7 -2.3
v 2.1 4.8 -2.3
v 1.9 4.6 -2.5
v 1.9 4.7 -2.5
v 2.1 4.6 -2.5
v 2.1 4.7 -2.5
v 1.9 4.5 -2.7
v 1.9 4.6 -2.7
v 2.1 4.5 -2.7
v 2.1 4.6 -2.7
v 1 3.9 -2.8
v 1 4.1 -2.8
v 1 4.2 -2.8
v 1.1 4.1 -2.8
v 1.1 4.2 -2.8
v 1.2 4.1 -2.8
v 1.2 4.2 -2.8
v 1.3 4.1 -2.8
v 1.3 4.2 -2.8
v 1.4 3.9 -2.8
v 1.4 4.1 -2.8
v 1.4 4.2 -2.8
v 1.4 4.3 -2.8
v 1.5 4.1 -2.8
v 1.5 4.3 -2.8
v 2.5 4.1 -2.8
v 2.5 4.3 -2.8
v 2.6 3.9 -2.8
v 2.6 4.1 -2.8
v 2.6 4.2 -2.8
v 2.6 4.3 -2.8
v 2.7 4.1 -2.8
v 2.7 4.2 -2.8
v 2.8 4.1 -2.8
v 2.8 4.2 -2.8
v 2.9 4.1 -2.8
v 2.9 4.2 -2.8
v 3 3.9 -2.8
v 3 4.1 -2.8
v 3 4.2 -2.8
v 1.5 4.2 -3
v 1.5 4.5 -3
v 1.6 4.2 -3
v 1.6 4.4 -3
v 1.7 4.4 -3
v 1.7 4.5 -3
v 2.3 4.4 -3
v 2.3 4.5 -3
v 2.4 4.2 -3
v 2.4 4.4 -3
v 2.5 4.2 -3
v 2.5 4.5 -3
v 1.4 3.7 -3.1
v 1.4 3.8 -3.1
v 1.4 4.1 -3.1
v 1.5 3.7 -3.1
v 1.5 3.8 -3.1
v 1.5 4.1 -3.1
v 1.7 3.6 -3.1
v 1.7 3.7 -3.1
v 2.3 3.6 -3.1
v 2.3 3.7 -3.1
v 2.5 3.7 -3.1
v 2.5 3.8 -3.1
v 2.5 4.1 -3.1
v 2.6 3.7 -3.1
v 2.6 3.8 -3.1
v 2.6 4.1 -3.1
v 1.5 3.7 -3.2
v 1.5 3.8 -3.2
v 1.5 4.2 -3.2
v 1.6 3.7 -3.2
v 1.6 3.8 -3.2
v 1.6 4.2 -3.2
v 1.7 3.7 -3.2
v 1.7 3.8 -3.2
v 1.8 3.8 -3.2
v 1.8 3.9 -3.2
v 1.8 4.1 -3.2
v 1.8 4.2 -3.2
v 1.8 4.4 -3.2
v 1.9 3.8 -3.2
v 1.9 3.9 -3.2
v 1.9 4.4 -3.2
v 2.1 3.8 -3.2
v 2.1 3.9 -3.2
v 2.1 4.4 -3.2
v 2.2 3.8 -3.2
v 2.2 3.9 -3.2
v 2.2 4.1 -3.2
v 2.2 4.2 -3.2
v 2.2 4.4 -3.2
v 2.3 3.7 -3.2
v 2.3 3.8 -3.2
v 2.4 3.7 -3.2
v 2.4 3.8 -3.2
v 2.4 4.2 -3.2
v 2.5 3.7 -3.2
v 2.5 3.8 -3.2
v 2.5 4.2 -3.2
v 1.6 3.6 -3.3
v 1.6 3.8 -3.3
v 1.6 4.4 -3.3
v 1.7 3.6 -3.3
v 1.7 3.8 -3.3
v 1.7 4.4 -3.3
v 1.7 4.5 -3.3
v 1.8 3.8 -3.3
v 1.8 3.9 -3.3
v 1.8 4.1 -3.3
v 1.8 4.2 -3.3
v 1.8 4.4 -3.3
v 1.8 4.5 -3.3
v 1.9 3.8 -3.3
v 1.9 3.9 -3.3
v 1.9 4.4 -3.3
v 1.9 4.5 -3.3
v 2.1 3.8 -3.3
v 2.1 3.9 -3.3
v 2.1 4.4 -3.3
v 2.1 4.5 -3.3
v 2.2 3.8 -3.3
v 2.2 3.9 -3.3
v 2.2 4.1 -3.3
v 2.2 4.2 -3.3
v 2.2 4.4 -3.3
v 2.2 4.5 -3.3
v 2.3 3.6 -3.3
v 2.3 3.8 -3.3
v 2.3 4.4 -3.3
v 2.3 4.5 -3.3
v 2.4 3.6 -3.3
v 2.4 3.8 -3.3
v 2.4 4.4 -3.3
v 1.8 3.6 -0.6
v 2.2 3.6 -0.6
v 1.6 3.6 -0.7
v 1.8 3.6 -0.7
v 2.2 3.6 -0.7
v 2.4 3.6 -0.7
v 1.8 3.6 -0.8
v 2.2 3.6 -0.8
v 1.6 3.6 -1.4
v 2.4 3.6 -1.4
v 1.6 3.6 -1.6
v 2.4 3.6 -1.6
v 1.6 3.6 -1.7
v 2.4 3.6 -1.7
v 1.6 3.6 -2
v 2.4 3.6 -2
v 1.6 3.6 -2.2
v 1.7 3.6 -2.2
v 2.3 3.6 -2.2
v 2.4 3.6 -2.2
v 1.6 3.6 -2.3
v 1.7 3.6 -2.3
v 1.8 3.6 -2.3
v 2.2 3.6 -2.3
v 2.3 3.6 -2.3
v 2.4 3.6 -2.3
v 1.7 3.6 -2.4
v 1.8 3.6 -2.4
v 1.9 3.6 -2.4
v 2.1 3.6 -2.4
v 2.2 3.6 -2.4
v 2.3 3.6 -2.4
v 1.8 3.6 -2.5
v 1.9 3.6 -2.5
v 2.1 3.6 -2.5
v 2.2 3.6 -2.5
v 1.9 3.6 -2.6
v 2.1 3.6 -2.6
v 1.7 3.6 -3.1
v 2.3 3.6 -3.1
v 1.6 3.6 -3.3
v 1.7 3.6 -3.3
v 2.3 3.6 -3.3
v 2.4 3.6 -3.3
v 1.4 3.7 -0.9
v 1.6 3.7 -0.9
v 2.4 3.7 -0.9
v 2.6 3.7 -0.9
v 1.4 3.7 -1.2
v 1.6 3.7 -1.2
v 2.4 3.7 -1.2
v 2.6 3.7 -1.2
v 1.4 3.7 -1.8
v 1.6 3.7 -1.8
v 2.4 3.7 -1.8
v 2.6 3.7 -1.8
v 1.4 3.7 -2
v 1.6 3.7 -2
v 2.4 3.7 -2
v 2.6 3.7 -2
v 1.4 3.7 -2.2
v 1.5 3.7 -2.2
v 1.6 3.7 -2.2
v 2.4 3.7 -2.2
v 2.5 3.7 -2.2
v 2.6 3.7 -2.2
v 1.4 3.7 -2.3
v 1.5 3.7 -2.3
v 1.6 3.7 -2.3
v 2.4 3.7 -2.3
v 2.5 3.7 -2.3
v 2.6 3.7 -2.3
v 1.4 3.7 -2.4
v 1.5 3.7 -2.4
v 2.5 3.7 -2.4
v 2.6 3.7 -2.4
v 1.4 3.7 -3.1
v 1.5 3.7 -3.1
v 1.7 3.7 -3.1
v 2.3 3.7 -3.1
v 2.5 3.7 -3.1
v 2.6 3.7 -3.1
v 1.5 3.7 -3.2
v 1.6 3.7 -3.2
v 1.7 3.7 -3.2
v 2.3 3.7 -3.2
v 2.4 3.7 -3.2
v 2.5 3.7 -3.2
v 1.4 3.8 -0.8
v 1.6 3.8 -0.8
v 2.4 3.8 -0.8
v 2.6 3.8 -0.8
v 1.4 3.8 -0.9
v 1.6 3.8 -0.9
v 2.4 3.8 -0.9
v 2.6 3.8 -0.9
v 1.4 3.8 -1.2
v 1.6 3.8 -1.2
v 2.4 3.8 -1.2
v 2.6 3.8 -1.2
v 1.4 3.8 -1.3
v 1.6 3.8 -1.3
v 2.4 3.8 -1.3
v 2.6 3.8 -1.3
v 1.6 3.8 -1.4
v 2.4 3.8 -1.4
v 1.6 3.8 -1.6
v 2.4 3.8 -1.6
v 1.4 3.8 -1.7
v 1.5 3.8 -1.7
v 1.6 3.8 -1.7
v 2.4 3.8 -1.7
v 2.5 3.8 -1.7
v 2.6 3.8 -1.7
v 1.4 3.8 -1.8
v 1.5 3.8 -1.8
v 1.6 3.8 -1.8
v 2.4 3.8 -1.8
v 2.5 3.8 -1.8
v 2.6 3.8 -1.8
v 1.7 3.8 -3.2
v 1.8 3.8 -3.2
v 1.9 3.8 -3.2
v 2.1 3.8 -3.2
v 2.2 3.8 -3.2
v 2.3 3.8 -3.2
v 1.7 3.8 -3.3
v 1.8 3.8 -3.3
v 1.9 3.8 -3.3
v 2.1 3.8 -3.3
v 2.2 3.8 -3.3
v 2.3 3.8 -3.3
v 1.4 3.9 -0.7
v 1.6 3.9 -0.7
v 2.4 3.9 -0.7
v 2.6 3.9 -0.7
v 1.4 3.9 -0.8
v 1.6 3.9 -0.8
v 2.4 3.9 -0.8
v 2.6 3.9 -0.8
v 1.4 3.9 -1.3
v 1.6 3.9 -1.3
v 2.4 3.9 -1.3
v 2.6 3.9 -1.3
v 1.4 3.9 -1.7
v 1.5 3.9 -1.7
v 1.6 3.9 -1.7
v 2.4 3.9 -1.7
v 2.5 3.9 -1.7
v 2.6 3.9 -1.7
v 1.3 3.9 -2.4
v 1.4 3.9 -2.4
v 2.6 3.9 -2.4
v 2.7 3.9 -2.4
v 1.2 3.9 -2.5
v 1.3 3.9 -2.5
v 1.4 3.9 -2.5
v 2.6 3.9 -2.5
v 2.7 3.9 -2.5
v 2.8 3.9 -2.5
v 1.1 3.9 -2.6
v 1.2 3.9 -2.6
v 1.3 3.9 -2.6
v 2.7 3.9 -2.6
v 2.8 3.9 -2.6
v 2.9 3.9 -2.6
v 1 3.9 -2.7
v 1.1 3.9 -2.7
v 2.9 3.9 -2.7
v 3 3.9 -2.7
v 1 3.9 -2.8
v 1.4 3.9 -2.8
v 2.6 3.9 -2.8
v 3 3.9 -2.8
v 1.9 4.1 -0.6
v 2.1 4.1 -0.6
v 1.9 4.1 -0.7
v 2.1 4.1 -0.7
v 1.8 4.1 -3.2
v 2.2 4.1 -3.2
v 1.8 4.1 -3.3
v 2.2 4.1 -3.3
v 1.7 4.2 -0.6
v 1.9 4.2 -0.6
v 2.1 4.2 -0.6
v 2.3 4.2 -0.6
v 1.7 4.2 -0.7
v 1.9 4.2 -0.7
v 2.1 4.2 -0.7
v 2.3 4.2 -0.7
v 1.8 4.4 -3.2
v 1.9 4.4 -3.2
v 2.1 4.4 -3.2
v 2.2 4.4 -3.2
v 1.8 4.4 -3.3
v 1.9 4.4 -3.3
v 2.1 4.4 -3.3
v 2.2 4.4 -3.3
v 1.8 3.9 -3.2
v 1.9 3.9 -3.2
v 2.1 3.9 -3.2
v 2.2 3.9 -3.2
v 1.8 3.9 -3.3
v 1.9 3.9 -3.3
v 2.1 3.9 -3.3
v 2.2 3.9 -3.3
v 1.8 4 -0.6
v 2.2 4 -0.6
v 1.8 4 -0.7
v 2.2 4 -0.7
v 1.4 4.1 -0.7
v 1.6 4.1 -0.7
v 2.4 4.1 -0.7
v 2.6 4.1 -0.7
v 1.4 4.1 -0.8
v 1.6 4.1 -0.8
v 2.4 4.1 -0.8
v 2.6 4.1 -0.8
v 1.4 4.1 -2.8
v 1.5 4.1 -2.8
v 2.5 4.1 -2.8
v 2.6 4.1 -2.8
v 1.4 4.1 -2.9
v 1.5 4.1 -2.9
v 2.5 4.1 -2.9
v 2.6 4.1 -2.9
v 1.4 4.1 -3.1
v 1.5 4.1 -3.1
v 2.5 4.1 -3.1
v 2.6 4.1 -3.1
v 1.4 4.2 -0.8
v 1.6 4.2 -0.8
v 2.4 4.2 -0.8
v 2.6 4.2 -0.8
v 1.4 4.2 -0.9
v 1.6 4.2 -0.9
v 2.4 4.2 -0.9
v 2.6 4.2 -0.9
v 1.9 4.2 -1.2
v 2.1 4.2 -1.2
v 1.8 4.2 -1.3
v 1.9 4.2 -1.3
v 2.1 4.2 -1.3
v 2.2 4.2 -1.3
v 1.4 4.2 -1.4
v 1.6 4.2 -1.4
v 1.8 4.2 -1.4
v 2.2 4.2 -1.4
v 2.5 4.2 -1.4
v 2.6 4.2 -1.4
v 1.4 4.2 -1.7
v 1.5 4.2 -1.7
v 1.6 4.2 -1.7
v 2.4 4.2 -1.7
v 2.5 4.2 -1.7
v 2.6 4.2 -1.7
v 1.3 4.2 -2.4
v 1.4 4.2 -2.4
v 2.6 4.2 -2.4
v 2.7 4.2 -2.4
v 1.2 4.2 -2.5
v 1.3 4.2 -2.5
v 2.7 4.2 -2.5
v 2.8 4.2 -2.5
v 1.1 4.2 -2.6
v 1.2 4.2 -2.6
v 2.8 4.2 -2.6
v 2.9 4.2 -2.6
v 1 4.2 -2.7
v 1.1 4.2 -2.7
v 2.9 4.2 -2.7
v 3 4.2 -2.7
v 1 4.2 -2.8
v 1.1 4.2 -2.8
v 1.2 4.2 -2.8
v 1.3 4.2 -2.8
v 1.4 4.2 -2.8
v 2.6 4.2 -2.8
v 2.7 4.2 -2.8
v 2.8 4.2 -2.8
v 2.9 4.2 -2.8
v 3 4.2 -2.8
v 1.5 4.2 -3
v 1.6 4.2 -3
v 2.4 4.2 -3
v 2.5 4.2 -3
v 1.5 4.2 -3.2
v 1.6 4.2 -3.2
v 1.8 4.2 -3.2
v 2.2 4.2 -3.2
v 2.4 4.2 -3.2
v 2.5 4.2 -3.2
v 1.8 4.2 -3.3
v 2.2 4.2 -3.3
v 1.7 4.3 -0.6
v 2.3 4.3 -0.6
v 1.7 4.3 -0.7
v 1.9 4.3 -0.7
v 2.1 4.3 -0.7
v 2.3 4.3 -0.7
v 1.4 4.3 -0.9
v 1.6 4.3 -0.9
v 2.4 4.3 -0.9
v 2.6 4.3 -0.9
v 1.5 4.3 -1
v 1.6 4.3 -1
v 2.4 4.3 -1
v 2.5 4.3 -1
v 1.4 4.3 -1.4
v 1.5 4.3 -1.4
v 2.5 4.3 -1.4
v 2.6 4.3 -1.4
v 1.4 4.3 -1.7
v 1.5 4.3 -1.7
v 2.5 4.3 -1.7
v 2.6 4.3 -1.7
v 1.4 4.3 -2.1
v 1.5 4.3 -2.1
v 2.5 4.3 -2.1
v 2.6 4.3 -2.1
v 1.4 4.3 -2.2
v 1.5 4.3 -2.2
v 2.5 4.3 -2.2
v 2.6 4.3 -2.2
v 1.5 4.3 -2.3
v 2.5 4.3 -2.3
v 1.4 4.3 -2.8
v 1.5 4.3 -2.8
v 2.5 4.3 -2.8
v 2.6 4.3 -2.8
v 1.6 4.4 -0.7
v 1.8 4.4 -0.7
v 2.2 4.4 -0.7
v 2.4 4.4 -0.7
v 1.5 4.4 -1
v 1.6 4.4 -1
v 2.4 4.4 -1
v 2.5 4.4 -1
v 1.8 4.4 -1.2
v 2.2 4.4 -1.2
v 1.8 4.4 -1.3
v 2.2 4.4 -1.3
v 1.5 4.4 -1.4
v 1.8 4.4 -1.4
v 2.2 4.4 -1.4
v 2.5 4.4 -1.4
v 1.6 4.4 -3
v 1.7 4.4 -3
v 2.3 4.4 -3
v 2.4 4.4 -3
v 1.7 4.4 -3.2
v 2.3 4.4 -3.2
v 1.6 4.4 -3.3
v 1.7 4.4 -3.3
v 2.3 4.4 -3.3
v 2.4 4.4 -3.3
v 1.8 4.5 -0.7
v 1.9 4.5 -0.7
v 2.1 4.5 -0.7
v 2.2 4.5 -0.7
v 1.9 4.5 -1.1
v 2.1 4.5 -1.1
v 1.8 4.5 -1.2
v 1.9 4.5 -1.2
v 2.1 4.5 -1.2
v 2.2 4.5 -1.2
v 1.8 4.5 -1.3
v 1.9 4.5 -1.3
v 2.1 4.5 -1.3
v 2.2 4.5 -1.3
v 1.5 4.5 -1.7
v 1.7 4.5 -1.7
v 1.8 4.5 -1.7
v 2.2 4.5 -1.7
v 2.3 4.5 -1.7
v 2.5 4.5 -1.7
v 1.7 4.5 -1.8
v 1.8 4.5 -1.8
v 1.9 4.5 -1.8
v 2.1 4.5 -1.8
v 2.2 4.5 -1.8
v 2.3 4.5 -1.8
v 1.8 4.5 -1.9
v 1.9 4.5 -1.9
v 2.1 4.5 -1.9
v 2.2 4.5 -1.9
v 1.9 4.5 -2
v 2.1 4.5 -2
v 1.9 4.5 -2.1
v 2.1 4.5 -2.1
v 1.5 4.5 -2.3
v 1.6 4.5 -2.3
v 1.9 4.5 -2.3
v 2.1 4.5 -2.3
v 2.4 4.5 -2.3
v 2.5 4.5 -2.3
v 1.5 4.5 -2.4
v 1.6 4.5 -2.4
v 1.7 4.5 -2.4
v 2.3 4.5 -2.4
v 2.4 4.5 -2.4
v 2.5 4.5 -2.4
v 1.6 4.5 -2.5
v 1.7 4.5 -2.5
v 1.8 4.5 -2.5
v 2.2 4.5 -2.5
v 2.3 4.5 -2.5
v 2.4 4.5 -2.5
v 1.7 4.5 -2.6
v 1.8 4.5 -2.6
v 1.9 4.5 -2.6
v 2.1 4.5 -2.6
v 2.2 4.5 -2.6
v 2.3 4.5 -2.6
v 1.8 4.5 -2.7
v 1.9 4.5 -2.7
v 2.1 4.5 -2.7
v 2.2 4.5 -2.7
v 1.5 4.5 -2.9
v 2.5 4.5 -2.9
v 1.5 4.5 -3
v 1.7 4.5 -3
v 2.3 4.5 -3
v 2.5 4.5 -3
v 1.7 4.5 -3.2
v 1.8 4.5 -3.2
v 1.9 4.5 -3.2
v 2.1 4.5 -3.2
v 2.2 4.5 -3.2
v 2.3 4.5 -3.2
v 1.7 4.5 -3.3
v 1.8 4.5 -3.3
v 1.9 4.5 -3.3
v 2.1 4.5 -3.3
v 2.2 4.5 -3.3
v 2.3 4.5 -3.3
v 1.9 4.6 -2.5
v 2.1 4.6 -2.5
v 1.9 4.6 -2.7
v 2.1 4.6 -2.7
v 1.9 4.7 -2.3
v 2.1 4.7 -2.3
v 1.9 4.7 -2.5
v 2.1 4.7 -2.5
v 1.9 4.8 -2.1
v 2.1 4.8 -2.1
v 1.9 4.8 -2.3
v 2.1 4.8 -2.3

# faces
f 3/2/1 2/2/1 1/2/1
f 4/2/1 2/2/1 3/2/1
f 5/6/1 4/6/1 3/6/1
f 6/6/1 4/6/1 5/6/1
f 9/2/1 8/2/1 7/2/1
f 10/2/1 8/2/1 9/2/1
f 11/6/1 10/6/1 9/6/1
f 12/6/1 10/6/1 11/6/1
f 13/2/1 12/2/1 11/2/1
f 14/2/1 12/2/1 13/2/1
f 17/6/1 16/6/1 15/6/1
f 18/6/1 16/6/1 17/6/1
f 19/2/1 18/2/1 17/2/1
f 20/2/1 18/2/1 19/2/1
f 21/4/1 20/4/1 19/4/1
f 22/4/1 20/4/1 21/4/1
f 25/2/1 24/2/1 23/2/1
f 26/2/1 25/2/1 23/2/1
f 27/2/1 26/2/1 23/2/1
f 28/2/1 26/2/1 27/2/1
f 38/3/1 30/3/1 29/3/1
f 39/3/1 30/3/1 38/3/1
f 42/2/1 32/2/1 31/2/1
f 43/4/1 33/4/1 32/4/1
f 43/2/1 32/2/1 42/2/1
f 44/2/1 34/2/1 33/2/1
f 44/4/1 33/4/1 43/4/1
f 45/6/1 35/6/1 34/6/1
f 45/2/1 34/2/1 44/2/1
f 46/2/1 36/2/1 35/2/1
f 46/6/1 35/6/1 45/6/1
f 47/2/1 36/2/1 46/2/1
f 48/2/1 36/2/1 47/2/1
f 49/2/1 36/2/1 48/2/1
f 51/3/1 40/3/1 39/3/1
f 51/3/1 38/3/1 37/3/1
f 51/3/1 39/3/1 38/3/1
f 52/3/1 40/3/1 51/3/1
f 53/6/1 42/6/1 41/6/1
f 54/2/1 45/2/1 44/2/1
f 54/2/1 43/2/1 42/2/1
f 54/6/1 42/6/1 53/6/1
f 54/2/1 44/2/1 43/2/1
f 54/2/1 46/2/1 45/2/1
f 55/2/1 46/2/1 54/2/1
f 56/6/1 47/6/1 46/6/1
f 56/2/1 46/2/1 55/2/1
f 57/2/1 48/2/1 47/2/1
f 57/6/1 47/6/1 56/6/1
f 58/2/1 48/2/1 57/2/1
f 59/3/1 53/3/1 52/3/1
f 59/3/1 52/3/1 51/3/1
f 59/3/1 51/3/1 50/3/1
f 60/3/1 53/3/1 59/3/1
f 61/2/1 54/2/1 53/2/1
f 61/6/1 55/6/1 54/6/1
f 62/2/1 56/2/1 55/2/1
f 62/6/1 55/6/1 61/6/1
f 63/2/1 56/2/1 62/2/1
f 64/4/1 60/4/1 59/4/1
f 65/4/1 60/4/1 64/4/1
f 66/2/1 62/2/1 61/2/1
f 66/6/1 63/6/1 62/6/1
f 67/2/1 56/2/1 63/2/1
f 67/6/1 63/6/1 66/6/1
f 68/2/1 56/2/1 67/2/1
f 69/2/1 48/2/1 58/2/1
f 70/4/1 49/4/1 48/4/1
f 70/2/1 48/2/1 69/2/1
f 71/4/1 49/4/1 70/4/1
f 72/4/1 60/4/1 65/4/1
f 73/4/1 60/4/1 72/4/1
f 74/3/1 53/3/1 60/3/1
f 74/4/1 60/4/1 73/4/1
f 75/3/1 53/3/1 74/3/1
f 76/2/1 66/2/1 61/2/1
f 76/3/1 53/3/1 75/3/1
f 76/2/1 61/2/1 53/2/1
f 76/2/1 67/2/1 66/2/1
f 77/6/1 68/6/1 67/6/1
f 77/2/1 67/2/1 76/2/1
f 78/2/1 56/2/1 68/2/1
f 78/6/1 68/6/1 77/6/1
f 79/2/1 56/2/1 78/2/1
f 80/2/1 56/2/1 79/2/1
f 82/4/1 75/4/1 74/4/1
f 82/4/1 74/4/1 73/4/1
f 83/4/1 75/4/1 82/4/1
f 84/2/1 77/2/1 76/2/1
f 84/2/1 78/2/1 77/2/1
f 85/6/1 79/6/1 78/6/1
f 85/2/1 78/2/1 84/2/1
f 86/2/1 81/2/1 80/2/1
f 86/6/1 79/6/1 85/6/1
f 86/2/1 80/2/1 79/2/1
f 87/2/1 81/2/1 86/2/1
f 90/2/1 89/2/1 88/2/1
f 91/2/1 89/2/1 90/2/1
f 94/4/1 91/4/1 90/4/1
f 95/4/1 94/4/1 93/4/1
f 96/4/1 91/4/1 94/4/1
f 96/4/1 94/4/1 95/4/1
f 103/2/1 93/2/1 92/2/1
f 104/2/1 98/2/1 97/2/1
f 105/2/1 98/2/1 104/2/1
f 106/6/1 102/6/1 101/6/1
f 106/2/1 100/2/1 99/2/1
f 106/2/1 101/2/1 100/2/1
f 107/2/1 103/2/1 102/2/1
f 107/6/1 102/6/1 106/6/1
f 108/2/1 103/2/1 107/2/1
f 109/2/1 106/2/1 99/2/1
f 109/2/1 107/2/1 106/2/1
f 110/6/1 108/6/1 107/6/1
f 110/2/1 107/2/1 109/2/1
f 111/2/1 103/2/1 108/2/1
f 111/6/1 108/6/1 110/6/1
f 112/4/1 95/4/1 93/4/1
f 112/2/1 103/2/1 111/2/1
f 112/2/1 93/2/1 103/2/1
f 113/4/1 95/4/1 112/4/1
f 122/3/1 115/3/1 114/3/1
f 123/3/1 115/3/1 122/3/1
f 124/2/1 118/2/1 117/2/1
f 125/4/1 119/4/1 118/4/1
f 125/2/1 118/2/1 124/2/1
f 126/6/1 120/6/1 119/6/1
f 126/4/1 119/4/1 125/4/1
f 127/2/1 121/2/1 120/2/1
f 127/6/1 120/6/1 126/6/1
f 128/2/1 121/2/1 127/2/1
f 129/3/1 122/3/1 114/3/1
f 130/3/1 122/3/1 129/3/1
f 131/3/1 115/3/1 123/3/1
f 132/3/1 115/3/1 131/3/1
f 133/3/1 115/3/1 132/3/1
f 134/3/1 117/3/1 116/3/1
f 135/2/1 124/2/1 117/2/1
f 135/3/1 117/3/1 134/3/1
f 136/2/1 124/2/1 135/2/1
f 137/2/1 121/2/1 128/2/1
f 138/2/1 121/2/1 137/2/1
f 139/3/1 129/3/1 114/3/1
f 140/3/1 129/3/1 139/3/1
f 141/3/1 133/3/1 132/3/1
f 141/3/1 134/3/1 133/3/1
f 141/3/1 135/3/1 134/3/1
f 142/3/1 135/3/1 141/3/1
f 145/2/1 144/2/1 143/2/1
f 148/4/1 138/4/1 137/4/1
f 149/2/1 146/2/1 145/2/1
f 151/2/1 145/2/1 143/2/1
f 151/2/1 150/2/1 149/2/1
f 151/2/1 149/2/1 145/2/1
f 152/2/1 150/2/1 151/2/1
f 153/4/1 148/4/1 147/4/1
f 154/4/1 138/4/1 148/4/1
f 154/4/1 148/4/1 153/4/1
f 157/1/1 156/1/1 155/1/1
f 158/1/1 156/1/1 157/1/1
f 162/4/1 160/4/1 159/4/1
f 163/6/1 161/6/1 160/6/1
f 163/4/1 160/4/1 162/4/1
f 164/6/1 161/6/1 163/6/1
f 167/1/1 166/1/1 165/1/1
f 168/1/1 166/1/1 167/1/1
f 172/2/1 170/2/1 169/2/1
f 173/3/1 171/3/1 170/3/1
f 173/2/1 170/2/1 172/2/1
f 174/3/1 171/3/1 173/3/1
f 177/1/1 176/1/1 175/1/1
f 178/1/1 176/1/1 177/1/1
f 183/4/1 181/4/1 180/4/1
f 183/4/1 182/4/1 181/4/1
f 184/4/1 182/4/1 183/4/1
f 185/2/1 180/2/1 179/2/1
f 185/4/1 183/4/1 180/4/1
f 186/4/1 183/4/1 185/4/1
f 187/2/1 185/2/1 179/2/1
f 188/2/1 185/2/1 187/2/1
f 191/3/1 190/3/1 189/3/1
f 192/3/1 190/3/1 191/3/1
f 195/6/1 194/6/1 193/6/1
f 196/6/1 194/6/1 195/6/1
f 201/2/1 198/2/1 197/2/1
f 202/2/1 198/2/1 201/2/1
f 203/6/1 200/6/1 199/6/1
f 204/6/1 200/6/1 203/6/1
f 207/2/1 206/2/1 205/2/1
f 208/2/1 206/2/1 207/2/1
f 209/2/1 206/2/1 208/2/1
f 210/2/1 206/2/1 209/2/1
f 211/2/2 212/2/2 213/2/2
f 213/2/2 212/2/2 214/2/2
f 214/2/2 212/2/2 215/2/2
f 215/2/2 212/2/2 216/2/2
f 217/6/2 218/6/2 219/6/2
f 219/6/2 218/6/2 220/6/2
f 221/2/2 222/2/2 225/2/2
f 225/2/2 222/2/2 226/2/2
f 223/6/2 224/6/2 227/6/2
f 227/6/2 224/6/2 228/6/2
f 229/3/2 230/3/2 231/3/2
f 231/3/2 230/3/2 232/3/2
f 233/1/2 234/1/2 235/1/2
f 235/1/2 234/1/2 236/1/2
f 238/4/2 239/4/2 241/4/2
f 239/4/2 240/4/2 241/4/2
f 241/4/2 240/4/2 242/4/2
f 237/2/2 238/2/2 243/2/2
f 238/4/2 241/4/2 243/4/2
f 243/4/2 241/4/2 244/4/2
f 237/2/2 243/2/2 245/2/2
f 245/2/2 243/2/2 246/2/2
f 247/1/2 248/1/2 249/1/2
f 249/1/2 248/1/2 250/1/2
f 251/2/2 252/2/2 254/2/2
f 252/3/2 253/3/2 255/3/2
f 254/2/2 252/2/2 255/2/2
f 255/3/2 253/3/2 256/3/2
f 257/1/2 258/1/2 259/1/2
f 259/1/2 258/1/2 260/1/2
f 261/4/2 262/4/2 264/4/2
f 262/6/2 263/6/2 265/6/2
f 264/4/2 262/4/2 265/4/2
f 265/6/2 263/6/2 266/6/2
f 267/3/2 268/3/2 275/3/2
f 275/3/2 268/3/2 276/3/2
f 270/2/2 271/2/2 277/2/2
f 271/4/2 272/4/2 278/4/2
f 277/2/2 271/2/2 278/2/2
f 272/6/2 273/6/2 279/6/2
f 278/4/2 272/4/2 279/4/2
f 273/2/2 274/2/2 280/2/2
f 279/6/2 273/6/2 280/6/2
f 280/2/2 274/2/2 281/2/2
f 267/3/2 275/3/2 282/3/2
f 282/3/2 275/3/2 283/3/2
f 276/3/2 268/3/2 284/3/2
f 284/3/2 268/3/2 285/3/2
f 285/3/2 268/3/2 286/3/2
f 269/3/2 270/3/2 287/3/2
f 270/2/2 277/2/2 288/2/2
f 287/3/2 270/3/2 288/3/2
f 288/2/2 277/2/2 289/2/2
f 281/2/2 274/2/2 290/2/2
f 290/2/2 274/2/2 291/2/2
f 267/3/2 282/3/2 292/3/2
f 292/3/2 282/3/2 293/3/2
f 285/3/2 286/3/2 294/3/2
f 286/3/2 287/3/2 294/3/2
f 287/3/2 288/3/2 294/3/2
f 294/3/2 288/3/2 295/3/2
f 296/2/2 297/2/2 298/2/2
f 290/4/2 291/4/2 301/4/2
f 298/2/2 299/2/2 302/2/2
f 296/2/2 298/2/2 304/2/2
f 302/2/2 303/2/2 304/2/2
f 298/2/2 302/2/2 304/2/2
f 304/2/2 303/2/2 305/2/2
f 300/4/2 301/4/2 306/4/2
f 301/4/2 291/4/2 307/4/2
f 306/4/2 301/4/2 307/4/2
f 308/2/2 309/2/2 310/2/2
f 310/2/2 309/2/2 311/2/2
f 310/4/2 311/4/2 314/4/2
f 313/4/2 314/4/2 315/4/2
f 314/4/2 311/4/2 316/4/2
f 315/4/2 314/4/2 316/4/2
f 312/2/2 313/2/2 323/2/2
f 317/2/2 318/2/2 324/2/2
f 324/2/2 318/2/2 325/2/2
f 321/6/2 322/6/2 326/6/2
f 319/2/2 320/2/2 326/2/2
f 320/2/2 321/2/2 326/2/2
f 322/2/2 323/2/2 327/2/2
f 326/6/2 322/6/2 327/6/2
f 327/2/2 323/2/2 328/2/2
f 319/2/2 326/2/2 329/2/2
f 326/2/2 327/2/2 329/2/2
f 327/6/2 328/6/2 330/6/2
f 329/2/2 327/2/2 330/2/2
f 328/2/2 323/2/2 331/2/2
f 330/6/2 328/6/2 331/6/2
f 313/4/2 315/4/2 332/4/2
f 331/2/2 323/2/2 332/2/2
f 323/2/2 313/2/2 332/2/2
f 332/4/2 315/4/2 333/4/2
f 334/3/2 335/3/2 343/3/2
f 343/3/2 335/3/2 344/3/2
f 336/2/2 337/2/2 347/2/2
f 337/4/2 338/4/2 348/4/2
f 347/2/2 337/2/2 348/2/2
f 338/2/2 339/2/2 349/2/2
f 348/4/2 338/4/2 349/4/2
f 339/6/2 340/6/2 350/6/2
f 349/2/2 339/2/2 350/2/2
f 340/2/2 341/2/2 351/2/2
f 350/6/2 340/6/2 351/6/2
f 351/2/2 341/2/2 352/2/2
f 352/2/2 341/2/2 353/2/2
f 353/2/2 341/2/2 354/2/2
f 344/3/2 345/3/2 356/3/2
f 342/3/2 343/3/2 356/3/2
f 343/3/2 344/3/2 356/3/2
f 356/3/2 345/3/2 357/3/2
f 346/6/2 347/6/2 358/6/2
f 349/2/2 350/2/2 359/2/2
f 347/2/2 348/2/2 359/2/2
f 358/6/2 347/6/2 359/6/2
f 348/2/2 349/2/2 359/2/2
f 350/2/2 351/2/2 359/2/2
f 359/2/2 351/2/2 360/2/2
f 351/6/2 352/6/2 361/6/2
f 360/2/2 351/2/2 361/2/2
f 352/2/2 353/2/2 362/2/2
f 361/6/2 352/6/2 362/6/2
f 362/2/2 353/2/2 363/2/2
f 357/3/2 358/3/2 364/3/2
f 356/3/2 357/3/2 364/3/2
f 355/3/2 356/3/2 364/3/2
f 364/3/2 358/3/2 365/3/2
f 358/2/2 359/2/2 366/2/2
f 359/6/2 360/6/2 366/6/2
f 360/2/2 361/2/2 367/2/2
f 366/6/2 360/6/2 367/6/2
f 367/2/2 361/2/2 368/2/2
f 364/4/2 365/4/2 369/4/2
f 369/4/2 365/4/2 370/4/2
f 366/2/2 367/2/2 371/2/2
f 367/6/2 368/6/2 371/6/2
f 368/2/2 361/2/2 372/2/2
f 371/6/2 368/6/2 372/6/2
f 372/2/2 361/2/2 373/2/2
f 363/2/2 353/2/2 374/2/2
f 353/4/2 354/4/2 375/4/2
f 374/2/2 353/2/2 375/2/2
f 375/4/2 354/4/2 376/4/2
f 370/4/2 365/4/2 377/4/2
f 377/4/2 365/4/2 378/4/2
f 365/3/2 358/3/2 379/3/2
f 378/4/2 365/4/2 379/4/2
f 366/2/2 371/2/2 380/2/2
f 379/3/2 358/3/2 380/3/2
f 358/2/2 366/2/2 380/2/2
f 371/2/2 372/2/2 380/2/2
f 372/6/2 373/6/2 381/6/2
f 380/2/2 372/2/2 381/2/2
f 373/2/2 361/2/2 382/2/2
f 381/6/2 373/6/2 382/6/2
f 382/2/2 361/2/2 383/2/2
f 383/2/2 361/2/2 384/2/2
f 378/4/2 379/4/2 386/4/2
f 386/4/2 379/4/2 387/4/2
f 380/2/2 381/2/2 388/2/2
f 381/2/2 382/2/2 388/2/2
f 382/6/2 383/6/2 389/6/2
f 388/2/2 382/2/2 389/2/2
f 384/2/2 385/2/2 390/2/2
f 389/6/2 383/6/2 390/6/2
f 383/2/2 384/2/2 390/2/2
f 390/2/2 385/2/2 391/2/2
f 392/2/2 393/2/2 394/2/2
f 392/2/2 394/2/2 395/2/2
f 392/2/2 395/2/2 396/2/2
f 396/2/2 395/2/2 397/2/2
f 398/6/2 399/6/2 400/6/2
f 400/6/2 399/6/2 401/6/2
f 400/2/2 401/2/2 402/2/2
f 402/2/2 401/2/2 403/2/2
f 402/4/2 403/4/2 404/4/2
f 404/4/2 403/4/2 405/4/2
f 406/2/2 407/2/2 408/2/2
f 408/2/2 407/2/2 409/2/2
f 408/6/2 409/6/2 410/6/2
f 410/6/2 409/6/2 411/6/2
f 410/2/2 411/2/2 412/2/2
f 412/2/2 411/2/2 413/2/2
f 414/2/2 415/2/2 416/2/2
f 416/2/2 415/2/2 417/2/2
f 416/6/2 417/6/2 418/6/2
f 418/6/2 417/6/2 419/6/2
f 425/1/3 421/1/3 420/1/3
f 426/1/3 425/1/3 424/1/3
f 427/1/3 421/1/3 425/1/3
f 427/1/3 425/1/3 426/1/3
f 428/1/3 423/1/3 422/1/3
f 429/1/3 423/1/3 428/1/3
f 430/1/3 421/1/3 427/1/3
f 431/1/3 421/1/3 430/1/3
f 436/3/3 433/3/3 432/3/3
f 437/4/3 434/4/3 433/4/3
f 439/2/3 438/2/3 437/2/3
f 440/2/3 438/2/3 439/2/3
f 441/3/3 436/3/3 435/3/3
f 442/3/3 433/3/3 436/3/3
f 442/3/3 436/3/3 441/3/3
f 442/4/3 437/4/3 433/4/3
f 443/2/3 438/2/3 440/2/3
f 445/4/3 437/4/3 442/4/3
f 445/2/3 439/2/3 437/2/3
f 446/2/3 439/2/3 445/2/3
f 447/2/3 444/2/3 443/2/3
f 447/2/3 443/2/3 440/2/3
f 448/2/3 444/2/3 447/2/3
f 449/4/3 445/4/3 442/4/3
f 451/5/3 448/5/3 447/5/3
f 452/5/3 448/5/3 451/5/3
f 454/4/3 449/4/3 442/4/3
f 455/2/3 452/2/3 451/2/3
f 456/2/3 452/2/3 455/2/3
f 457/2/3 450/2/3 449/2/3
f 458/2/3 455/2/3 451/2/3
f 459/3/3 454/3/3 453/3/3
f 460/3/3 454/3/3 459/3/3
f 461/2/3 458/2/3 457/2/3
f 461/4/3 449/4/3 454/4/3
f 461/2/3 457/2/3 449/2/3
f 462/2/3 455/2/3 458/2/3
f 462/2/3 458/2/3 461/2/3
f 463/3/3 454/3/3 460/3/3
f 464/4/3 461/4/3 454/4/3
f 464/3/3 454/3/3 463/3/3
f 465/4/3 461/4/3 464/4/3
f 470/3/3 467/3/3 466/3/3
f 471/3/3 467/3/3 470/3/3
f 472/4/3 469/4/3 468/4/3
f 473/4/3 469/4/3 472/4/3
f 478/3/3 475/3/3 474/3/3
f 479/3/3 475/3/3 478/3/3
f 480/4/3 477/4/3 476/4/3
f 481/4/3 477/4/3 480/4/3
f 486/3/3 483/3/3 482/3/3
f 487/3/3 483/3/3 486/3/3
f 488/4/3 485/4/3 484/4/3
f 489/4/3 485/4/3 488/4/3
f 494/3/3 491/3/3 490/3/3
f 495/3/3 491/3/3 494/3/3
f 496/4/3 493/4/3 492/4/3
f 497/4/3 493/4/3 496/4/3
f 500/2/3 499/2/3 498/2/3
f 501/2/3 499/2/3 500/2/3
f 504/2/3 503/2/3 502/2/3
f 505/2/3 503/2/3 504/2/3
f 508/3/3 507/3/3 506/3/3
f 509/3/3 507/3/3 508/3/3
f 514/6/3 511/6/3 510/6/3
f 515/6/3 511/6/3 514/6/3
f 516/2/3 513/2/3 512/2/3
f 517/2/3 513/2/3 516/2/3
f 519/2/3 515/2/3 514/2/3
f 520/2/3 515/2/3 519/2/3
f 521/6/3 517/6/3 516/6/3
f 522/2/3 518/2/3 517/2/3
f 522/6/3 517/6/3 521/6/3
f 523/2/3 518/2/3 522/2/3
f 524/2/3 522/2/3 521/2/3
f 524/6/3 523/6/3 522/6/3
f 525/2/3 518/2/3 523/2/3
f 525/6/3 523/6/3 524/6/3
f 526/2/3 518/2/3 525/2/3
f 527/2/3 525/2/3 524/2/3
f 527/6/3 526/6/3 525/6/3
f 528/6/3 526/6/3 527/6/3
f 529/2/3 527/2/3 524/2/3
f 529/2/3 528/2/3 527/2/3
f 530/2/3 528/2/3 529/2/3
f 531/2/3 524/2/3 521/2/3
f 531/2/3 529/2/3 524/2/3
f 532/6/3 530/6/3 529/6/3
f 532/2/3 529/2/3 531/2/3
f 533/6/3 530/6/3 532/6/3
f 536/2/3 531/2/3 521/2/3
f 537/6/3 532/6/3 531/6/3
f 537/2/3 531/2/3 536/2/3
f 538/2/3 533/2/3 532/2/3
f 538/6/3 532/6/3 537/6/3
f 539/2/3 535/2/3 534/2/3
f 540/2/3 535/2/3 539/2/3
f 541/6/3 537/6/3 536/6/3
f 542/2/3 538/2/3 537/2/3
f 542/6/3 537/6/3 541/6/3
f 543/2/3 533/2/3 538/2/3
f 543/2/3 538/2/3 542/2/3
f 544/6/3 540/6/3 539/6/3
f 545/6/3 540/6/3 544/6/3
f 546/2/3 542/2/3 541/2/3
f 547/2/3 542/2/3 546/2/3
f 550/2/3 549/2/3 548/2/3
f 551/2/3 550/2/3 548/2/3
f 552/2/3 550/2/3 551/2/3
f 555/2/3 554/2/3 553/2/3
f 556/2/3 555/2/3 553/2/3
f 557/2/3 555/2/3 556/2/3
f 560/2/3 559/2/3 558/2/3
f 561/2/3 559/2/3 560/2/3
f 564/2/3 563/2/3 562/2/3
f 565/2/3 563/2/3 564/2/3
f 568/2/3 567/2/3 566/2/3
f 569/2/3 567/2/3 568/2/3
f 574/6/3 571/6/3 570/6/3
f 575/2/3 572/2/3 571/2/3
f 575/6/3 571/6/3 574/6/3
f 576/4/3 573/4/3 572/4/3
f 576/2/3 572/2/3 575/2/3
f 577/4/3 573/4/3 576/4/3
f 582/6/3 579/6/3 578/6/3
f 583/2/3 580/2/3 579/2/3
f 583/6/3 579/6/3 582/6/3
f 584/4/3 581/4/3 580/4/3
f 584/2/3 580/2/3 583/2/3
f 585/4/3 581/4/3 584/4/3
f 590/2/3 587/2/3 586/2/3
f 591/6/3 588/6/3 587/6/3
f 591/2/3 587/2/3 590/2/3
f 592/2/3 589/2/3 588/2/3
f 592/6/3 588/6/3 591/6/3
f 593/2/3 589/2/3 592/2/3
f 598/2/3 595/2/3 594/2/3
f 599/6/3 596/6/3 595/6/3
f 599/2/3 595/2/3 598/2/3
f 600/2/3 597/2/3 596/2/3
f 600/6/3 596/6/3 599/6/3
f 601/2/3 597/2/3 600/2/3
f 605/2/3 603/2/3 602/2/3
f 606/2/3 603/2/3 605/2/3
f 607/6/3 604/6/3 603/6/3
f 607/2/3 603/2/3 606/2/3
f 608/6/3 604/6/3 607/6/3
f 613/2/3 610/2/3 609/2/3
f 613/2/3 611/2/3 610/2/3
f 614/6/3 612/6/3 611/6/3
f 614/2/3 611/2/3 613/2/3
f 615/6/3 612/6/3 614/6/3
f 616/3/4 617/3/4 618/3/4
f 618/3/4 617/3/4 619/3/4
f 620/3/4 621/3/4 622/3/4
f 622/3/4 621/3/4 623/3/4
f 624/3/4 625/3/4 626/3/4
f 626/3/4 625/3/4 627/3/4
f 628/3/4 629/3/4 630/3/4
f 630/3/4 629/3/4 631/3/4
f 632/3/4 633/3/4 635/3/4
f 633/3/4 634/3/4 635/3/4
f 635/3/4 634/3/4 636/3/4
f 637/3/4 638/3/4 639/3/4
f 639/3/4 638/3/4 640/3/4
f 640/3/4 638/3/4 641/3/4
f 642/3/4 643/3/4 644/3/4
f 644/3/4 643/3/4 645/3/4
f 646/4/4 647/4/4 648/4/4
f 646/4/4 648/4/4 652/4/4
f 648/2/4 649/2/4 653/2/4
f 652/4/4 648/4/4 653/4/4
f 652/2/4 653/2/4 654/2/4
f 653/2/4 649/2/4 655/2/4
f 654/2/4 653/2/4 655/2/4
f 650/3/4 651/3/4 658/3/4
f 658/3/4 651/3/4 659/3/4
f 656/2/4 657/2/4 660/2/4
f 660/2/4 657/2/4 661/2/4
f 661/2/4 657/2/4 662/2/4
f 660/4/4 661/4/4 663/4/4
f 663/4/4 661/4/4 664/4/4
f 665/2/4 666/2/4 667/2/4
f 667/2/4 666/2/4 668/2/4
f 669/4/4 670/4/4 671/4/4
f 671/4/4 670/4/4 672/4/4
f 673/4/4 674/4/4 675/4/4
f 675/4/4 674/4/4 676/4/4
f 677/2/4 678/2/4 680/2/4
f 678/6/4 679/6/4 680/6/4
f 680/6/4 679/6/4 681/6/4
f 677/2/4 680/2/4 682/2/4
f 680/2/4 681/2/4 682/2/4
f 682/2/4 681/2/4 683/2/4
f 677/2/4 682/2/4 684/2/4
f 682/4/4 683/4/4 684/4/4
f 684/4/4 683/4/4 685/4/4
f 677/2/4 684/2/4 686/2/4
f 684/2/4 685/2/4 686/2/4
f 686/2/4 685/2/4 687/2/4
f 687/2/4 685/2/4 688/2/4
f 687/2/4 688/2/4 690/2/4
f 688/2/4 689/2/4 690/2/4
f 690/2/4 689/2/4 691/2/4
f 692/2/4 693/2/4 695/2/4
f 695/2/4 693/2/4 696/2/4
f 696/2/4 693/2/4 697/2/4
f 694/2/4 695/2/4 698/2/4
f 695/2/4 696/2/4 698/2/4
f 698/2/4 696/2/4 699/2/4
f 694/2/4 698/2/4 700/2/4
f 698/4/4 699/4/4 700/4/4
f 700/4/4 699/4/4 701/4/4
f 694/2/4 700/2/4 702/2/4
f 700/2/4 701/2/4 702/2/4
f 702/2/4 701/2/4 703/2/4
f 694/2/4 702/2/4 704/2/4
f 702/6/4 703/6/4 705/6/4
f 704/2/4 702/2/4 705/2/4
f 705/6/4 703/6/4 706/6/4
f 707/4/4 708/4/4 709/4/4
f 709/4/4 708/4/4 710/4/4
f 710/4/4 708/4/4 711/4/4
f 711/4/4 708/4/4 712/4/4
f 713/4/4 714/4/4 716/4/4
f 715/4/4 716/4/4 717/4/4
f 716/4/4 714/4/4 718/4/4
f 717/4/4 716/4/4 718/4/4
f 719/2/4 720/2/4 722/2/4
f 720/4/4 721/4/4 723/4/4
f 722/2/4 720/2/4 723/2/4
f 723/4/4 721/4/4 724/4/4
f 725/2/4 726/2/4 727/2/4
f 727/2/4 726/2/4 728/2/4
f 729/2/4 730/2/4 732/2/4
f 730/4/4 731/4/4 733/4/4
f 732/2/4 730/2/4 733/2/4
f 733/4/4 731/4/4 734/4/4
f 735/2/4 736/2/4 738/2/4
f 736/4/4 737/4/4 739/4/4
f 738/2/4 736/2/4 739/2/4
f 739/4/4 737/4/4 740/4/4
f 741/2/4 742/2/4 743/2/4
f 741/2/4 743/2/4 748/2/4
f 744/3/4 745/3/4 749/3/4
f 746/3/4 747/3/4 750/3/4
f 741/2/4 748/2/4 751/2/4
f 749/3/4 745/3/4 752/3/4
f 746/3/4 750/3/4 753/3/4
f 741/2/4 751/2/4 754/2/4
f 752/3/4 745/3/4 755/3/4
f 755/3/4 745/3/4 756/3/4
f 746/3/4 753/3/4 757/3/4
f 757/3/4 753/3/4 758/3/4
f 741/2/4 754/2/4 759/2/4
f 759/2/4 754/2/4 760/2/4
f 761/2/4 762/2/4 764/2/4
f 762/4/4 763/4/4 765/4/4
f 764/2/4 762/2/4 765/2/4
f 765/4/4 763/4/4 766/4/4
f 767/2/4 768/2/4 770/2/4
f 768/4/4 769/4/4 771/4/4
f 770/2/4 768/2/4 771/2/4
f 771/4/4 769/4/4 772/4/4
f 772/6/4 773/6/4 774/6/4
f 771/6/4 772/6/4 774/6/4
f 774/6/4 773/6/4 775/6/4
f 775/6/4 773/6/4 776/6/4
f 776/6/4 773/6/4 777/6/4
f 777/6/4 773/6/4 778/6/4
f 778/6/4 773/6/4 779/6/4
f 774/7/4 775/7/4 780/7/4
f 780/7/4 775/7/4 781/7/4
f 778/7/4 779/7/4 782/7/4
f 782/7/4 779/7/4 783/7/4
f 780/6/4 781/6/4 784/6/4
f 784/6/4 781/6/4 785/6/4
f 782/6/4 783/6/4 786/6/4
f 786/6/4 783/6/4 787/6/4
f 784/7/4 785/7/4 788/7/4
f 788/7/4 785/7/4 789/7/4
f 776/6/4 777/6/4 790/6/4
f 790/6/4 777/6/4 791/6/4
f 786/7/4 787/7/4 792/7/4
f 792/7/4 787/7/4 793/7/4
f 788/6/4 789/6/4 795/6/4
f 790/6/4 791/6/4 795/6/4
f 792/6/4 793/6/4 795/6/4
f 791/6/4 792/6/4 795/6/4
f 789/6/4 790/6/4 795/6/4
f 795/6/4 793/6/4 796/6/4
f 796/6/4 793/6/4 797/6/4
f 794/2/4 795/2/4 798/2/4
f 795/4/4 796/4/4 799/4/4
f 798/2/4 795/2/4 799/2/4
f 799/4/4 796/4/4 800/4/4
f 804/1/5 802/1/5 801/1/5
f 805/1/5 802/1/5 804/1/5
f 807/3/5 804/3/5 803/3/5
f 807/1/5 805/1/5 804/1/5
f 808/3/5 806/3/5 805/3/5
f 808/1/5 805/1/5 807/1/5
f 809/3/5 807/3/5 803/3/5
f 809/3/5 808/3/5 807/3/5
f 810/3/5 806/3/5 808/3/5
f 810/3/5 808/3/5 809/3/5
f 813/3/5 812/3/5 811/3/5
f 814/3/5 812/3/5 813/3/5
f 815/2/5 814/2/5 813/2/5
f 816/2/5 814/2/5 815/2/5
f 817/4/5 816/4/5 815/4/5
f 818/4/5 816/4/5 817/4/5
f 819/4/5 816/4/5 818/4/5
f 820/4/5 816/4/5 819/4/5
f 821/6/5 818/6/5 817/6/5
f 822/2/5 819/2/5 818/2/5
f 822/6/5 818/6/5 821/6/5
f 823/2/5 819/2/5 822/2/5
f 824/2/5 819/2/5 823/2/5
f 825/6/5 820/6/5 819/6/5
f 825/2/5 819/2/5 824/2/5
f 826/6/5 820/6/5 825/6/5
f 827/2/5 822/2/5 821/2/5
f 827/6/5 823/6/5 822/6/5
f 828/2/5 824/2/5 823/2/5
f 828/6/5 823/6/5 827/6/5
f 829/2/5 824/2/5 828/2/5
f 830/2/5 824/2/5 829/2/5
f 831/6/5 825/6/5 824/6/5
f 831/2/5 824/2/5 830/2/5
f 832/2/5 826/2/5 825/2/5
f 832/6/5 825/6/5 831/6/5
f 833/2/5 828/2/5 827/2/5
f 833/6/5 829/6/5 828/6/5
f 834/2/5 830/2/5 829/2/5
f 834/6/5 829/6/5 833/6/5
f 835/6/5 831/6/5 830/6/5
f 835/2/5 830/2/5 834/2/5
f 836/2/5 832/2/5 831/2/5
f 836/6/5 831/6/5 835/6/5
f 837/2/5 834/2/5 833/2/5
f 837/6/5 835/6/5 834/6/5
f 838/2/5 836/2/5 835/2/5
f 838/6/5 835/6/5 837/6/5
f 839/2/5 827/2/5 821/2/5
f 839/2/5 833/2/5 827/2/5
f 839/2/5 838/2/5 837/2/5
f 839/2/5 837/2/5 833/2/5
f 840/2/5 836/2/5 838/2/5
f 840/2/5 838/2/5 839/2/5
f 840/2/5 832/2/5 836/2/5
f 840/2/5 826/2/5 832/2/5
f 841/2/5 839/2/5 821/2/5
f 842/2/5 839/2/5 841/2/5
f 843/2/5 826/2/5 840/2/5
f 844/2/5 826/2/5 843/2/5
f 849/3/5 846/3/5 845/3/5
f 850/3/5 846/3/5 849/3/5
f 851/3/5 848/3/5 847/3/5
f 852/3/5 848/3/5 851/3/5
f 857/2/5 854/2/5 853/2/5
f 858/2/5 854/2/5 857/2/5
f 859/2/5 856/2/5 855/2/5
f 860/2/5 856/2/5 859/2/5
f 861/4/5 858/4/5 857/4/5
f 862/4/5 858/4/5 861/4/5
f 863/4/5 858/4/5 862/4/5
f 864/4/5 860/4/5 859/4/5
f 865/4/5 860/4/5 864/4/5
f 866/4/5 860/4/5 865/4/5
f 867/2/5 862/2/5 861/2/5
f 868/6/5 863/6/5 862/6/5
f 868/2/5 862/2/5 867/2/5
f 869/6/5 863/6/5 868/6/5
f 870/6/5 865/6/5 864/6/5
f 871/2/5 866/2/5 865/2/5
f 871/6/5 865/6/5 870/6/5
f 872/2/5 866/2/5 871/2/5
f 873/6/5 868/6/5 867/6/5
f 874/2/5 869/2/5 868/2/5
f 874/6/5 868/6/5 873/6/5
f 875/2/5 871/2/5 870/2/5
f 875/6/5 872/6/5 871/6/5
f 876/6/5 872/6/5 875/6/5
f 877/2/5 874/2/5 873/2/5
f 878/2/5 869/2/5 874/2/5
f 878/2/5 874/2/5 877/2/5
f 881/2/5 875/2/5 870/2/5
f 881/2/5 876/2/5 875/2/5
f 882/2/5 876/2/5 881/2/5
f 883/2/5 869/2/5 878/2/5
f 884/2/5 869/2/5 883/2/5
f 885/2/5 880/2/5 879/2/5
f 886/2/5 880/2/5 885/2/5
f 887/2/5 881/2/5 870/2/5
f 888/2/5 881/2/5 887/2/5
f 893/3/5 890/3/5 889/3/5
f 894/3/5 890/3/5 893/3/5
f 895/3/5 892/3/5 891/3/5
f 896/3/5 892/3/5 895/3/5
f 901/3/5 898/3/5 897/3/5
f 902/3/5 898/3/5 901/3/5
f 903/3/5 900/3/5 899/3/5
f 904/3/5 900/3/5 903/3/5
f 907/3/5 906/3/5 905/3/5
f 908/3/5 906/3/5 907/3/5
f 915/6/5 910/6/5 909/6/5
f 916/2/5 911/2/5 910/2/5
f 916/6/5 910/6/5 915/6/5
f 917/2/5 911/2/5 916/2/5
f 918/2/5 913/2/5 912/2/5
f 919/6/5 914/6/5 913/6/5
f 919/2/5 913/2/5 918/2/5
f 920/6/5 914/6/5 919/6/5
f 927/6/5 922/6/5 921/6/5
f 928/7/5 923/7/5 922/7/5
f 928/6/5 922/6/5 927/6/5
f 929/6/5 924/6/5 923/6/5
f 929/7/5 923/7/5 928/7/5
f 930/7/5 925/7/5 924/7/5
f 930/6/5 924/6/5 929/6/5
f 931/6/5 926/6/5 925/6/5
f 931/7/5 925/7/5 930/7/5
f 932/6/5 926/6/5 931/6/5
f 937/3/5 934/3/5 933/3/5
f 938/3/5 934/3/5 937/3/5
f 939/3/5 936/3/5 935/3/5
f 940/3/5 936/3/5 939/3/5
f 945/3/5 942/3/5 941/3/5
f 946/3/5 942/3/5 945/3/5
f 947/3/5 942/3/5 946/3/5
f 948/3/5 944/3/5 943/3/5
f 949/3/5 944/3/5 948/3/5
f 950/3/5 944/3/5 949/3/5
f 956/2/5 952/2/5 951/2/5
f 957/2/5 952/2/5 956/2/5
f 958/2/5 954/2/5 953/2/5
f 959/2/5 954/2/5 958/2/5
f 962/6/5 956/6/5 955/6/5
f 963/2/5 957/2/5 956/2/5
f 963/6/5 956/6/5 962/6/5
f 964/6/5 960/6/5 959/6/5
f 964/2/5 959/2/5 958/2/5
f 965/6/5 960/6/5 964/6/5
f 968/2/5 962/2/5 961/2/5
f 968/2/5 963/2/5 962/2/5
f 969/2/5 966/2/5 965/2/5
f 969/2/5 965/2/5 964/2/5
f 971/2/5 968/2/5 967/2/5
f 972/2/5 957/2/5 963/2/5
f 972/2/5 968/2/5 971/2/5
f 972/2/5 963/2/5 968/2/5
f 973/2/5 970/2/5 969/2/5
f 973/2/5 969/2/5 964/2/5
f 973/2/5 964/2/5 958/2/5
f 974/2/5 970/2/5 973/2/5
f 977/1/5 976/1/5 975/1/5
f 978/1/5 976/1/5 977/1/5
f 981/6/5 980/6/5 979/6/5
f 982/6/5 980/6/5 981/6/5
f 987/1/5 984/1/5 983/1/5
f 988/1/5 984/1/5 987/1/5
f 989/1/5 986/1/5 985/1/5
f 990/1/5 986/1/5 989/1/5
f 995/7/5 992/7/5 991/7/5
f 996/6/5 993/6/5 992/6/5
f 996/7/5 992/7/5 995/7/5
f 997/7/5 994/7/5 993/7/5
f 997/6/5 993/6/5 996/6/5
f 998/7/5 994/7/5 997/7/5
f 999/7/6 1000/7/6 1003/7/6
f 1000/6/6 1001/6/6 1004/6/6
f 1003/7/6 1000/7/6 1004/7/6
f 1001/7/6 1002/7/6 1005/7/6
f 1004/6/6 1001/6/6 1005/6/6
f 1005/7/6 1002/7/6 1006/7/6
f 1007/1/6 1008/1/6 1009/1/6
f 1009/1/6 1008/1/6 1010/1/6
f 1011/4/6 1012/4/6 1015/4/6
f 1015/4/6 1012/4/6 1016/4/6
f 1013/4/6 1014/4/6 1017/4/6
f 1017/4/6 1014/4/6 1018/4/6
f 1019/2/6 1020/2/6 1023/2/6
f 1023/2/6 1020/2/6 1024/2/6
f 1021/2/6 1022/2/6 1025/2/6
f 1025/2/6 1022/2/6 1026/2/6
f 1023/4/6 1024/4/6 1027/4/6
f 1027/4/6 1024/4/6 1028/4/6
f 1025/4/6 1026/4/6 1029/4/6
f 1029/4/6 1026/4/6 1030/4/6
f 1031/4/6 1032/4/6 1035/4/6
f 1035/4/6 1032/4/6 1036/4/6
f 1033/4/6 1034/4/6 1037/4/6
f 1037/4/6 1034/4/6 1038/4/6
f 1039/3/6 1040/3/6 1042/3/6
f 1042/3/6 1040/3/6 1043/3/6
f 1041/3/6 1042/3/6 1047/3/6
f 1042/3/6 1043/3/6 1047/3/6
f 1043/3/6 1044/3/6 1047/3/6
f 1047/3/6 1044/3/6 1048/3/6
f 1045/3/6 1046/3/6 1051/3/6
f 1049/3/6 1050/3/6 1051/3/6
f 1048/3/6 1049/3/6 1051/3/6
f 1047/3/6 1048/3/6 1051/3/6
f 1046/3/6 1047/3/6 1051/3/6
f 1051/3/6 1050/3/6 1052/3/6
f 1052/3/6 1050/3/6 1053/3/6
f 1053/3/6 1050/3/6 1054/3/6
f 1054/3/6 1050/3/6 1055/3/6
f 1055/3/6 1050/3/6 1056/3/6
f 1057/2/6 1058/2/6 1062/2/6
f 1059/2/6 1060/2/6 1063/2/6
f 1061/4/6 1062/4/6 1066/4/6
f 1063/4/6 1064/4/6 1067/4/6
f 1065/2/6 1066/2/6 1070/2/6
f 1067/2/6 1068/2/6 1071/2/6
f 1069/6/6 1070/6/6 1073/6/6
f 1070/2/6 1066/2/6 1074/2/6
f 1073/6/6 1070/6/6 1074/6/6
f 1066/4/6 1062/4/6 1075/4/6
f 1074/2/6 1066/2/6 1075/2/6
f 1062/2/6 1058/2/6 1076/2/6
f 1075/4/6 1062/4/6 1076/4/6
f 1076/2/6 1058/2/6 1077/2/6
f 1059/2/6 1063/2/6 1078/2/6
f 1063/4/6 1067/4/6 1079/4/6
f 1078/2/6 1063/2/6 1079/2/6
f 1067/2/6 1071/2/6 1080/2/6
f 1079/4/6 1067/4/6 1080/4/6
f 1071/6/6 1072/6/6 1081/6/6
f 1080/2/6 1071/2/6 1081/2/6
f 1081/6/6 1072/6/6 1082/6/6
f 1083/4/6 1084/4/6 1087/4/6
f 1087/4/6 1084/4/6 1088/4/6
f 1085/4/6 1086/4/6 1091/4/6
f 1091/4/6 1086/4/6 1092/4/6
f 1089/6/6 1090/6/6 1093/6/6
f 1093/6/6 1090/6/6 1094/6/6
f 1095/1/6 1096/1/6 1097/1/6
f 1097/1/6 1096/1/6 1098/1/6
f 1098/1/6 1096/1/6 1099/1/6
f 1099/1/6 1096/1/6 1100/1/6
f 1101/4/6 1102/4/6 1105/4/6
f 1105/4/6 1102/4/6 1106/4/6
f 1103/4/6 1104/4/6 1107/4/6
f 1107/4/6 1104/4/6 1108/4/6
f 1101/4/6 1105/4/6 1109/4/6
f 1109/4/6 1105/4/6 1110/4/6
f 1108/4/6 1104/4/6 1111/4/6
f 1111/4/6 1104/4/6 1112/4/6
f 1113/2/6 1114/2/6 1117/2/6
f 1117/2/6 1114/2/6 1118/2/6
f 1115/2/6 1116/2/6 1119/2/6
f 1119/2/6 1116/2/6 1120/2/6
f 1117/6/6 1118/6/6 1121/6/6
f 1121/6/6 1118/6/6 1122/6/6
f 1119/6/6 1120/6/6 1123/6/6
f 1123/6/6 1120/6/6 1124/6/6
f 1121/2/6 1122/2/6 1125/2/6
f 1123/2/6 1124/2/6 1126/2/6
f 1121/2/6 1125/2/6 1127/2/6
f 1127/2/6 1125/2/6 1128/2/6
f 1126/2/6 1124/2/6 1129/2/6
f 1129/2/6 1124/2/6 1130/2/6
f 1131/2/6 1132/2/6 1136/2/6
f 1133/2/6 1134/2/6 1137/2/6
f 1135/2/6 1136/2/6 1139/2/6
f 1136/2/6 1132/2/6 1139/2/6
f 1137/2/6 1138/2/6 1140/2/6
f 1133/2/6 1137/2/6 1140/2/6
f 1135/2/6 1139/2/6 1141/2/6
f 1140/2/6 1138/2/6 1142/2/6
f 1135/2/6 1141/2/6 1143/2/6
f 1143/2/6 1141/2/6 1144/2/6
f 1142/2/6 1138/2/6 1145/2/6
f 1145/2/6 1138/2/6 1146/2/6
f 1147/4/6 1148/4/6 1151/4/6
f 1149/4/6 1150/4/6 1152/4/6
f 1147/4/6 1151/4/6 1153/4/6
f 1153/4/6 1151/4/6 1154/4/6
f 1152/4/6 1150/4/6 1155/4/6
f 1155/4/6 1150/4/6 1156/4/6
f 1157/2/6 1158/2/6 1161/2/6
f 1158/5/6 1159/5/6 1161/5/6
f 1159/2/6 1160/2/6 1162/2/6
f 1161/5/6 1159/5/6 1162/5/6
f 1157/2/6 1161/2/6 1163/2/6
f 1161/3/6 1162/3/6 1164/3/6
f 1163/2/6 1161/2/6 1164/2/6
f 1162/2/6 1160/2/6 1165/2/6
f 1164/3/6 1162/3/6 1165/3/6
f 1165/2/6 1160/2/6 1166/2/6
f 1163/3/6 1164/3/6 1167/3/6
f 1167/3/6 1164/3/6 1168/3/6
f 1165/3/6 1166/3/6 1169/3/6
f 1169/3/6 1166/3/6 1170/3/6
f 1172/6/6 1173/6/6 1177/6/6
f 1171/2/6 1172/2/6 1177/2/6
f 1173/2/6 1174/2/6 1178/2/6
f 1177/6/6 1173/6/6 1178/6/6
f 1178/2/6 1174/2/6 1179/2/6
f 1179/2/6 1174/2/6 1180/2/6
f 1174/6/6 1175/6/6 1181/6/6
f 1180/2/6 1174/2/6 1181/2/6
f 1175/2/6 1176/2/6 1182/2/6
f 1181/6/6 1175/6/6 1182/6/6
f 1177/2/6 1178/2/6 1183/2/6
f 1178/6/6 1179/6/6 1183/6/6
f 1179/2/6 1180/2/6 1184/2/6
f 1183/6/6 1179/6/6 1184/6/6
f 1180/6/6 1181/6/6 1185/6/6
f 1184/2/6 1180/2/6 1185/2/6
f 1181/2/6 1182/2/6 1186/2/6
f 1185/6/6 1181/6/6 1186/6/6
f 1183/2/6 1184/2/6 1187/2/6
f 1184/6/6 1185/6/6 1187/6/6
f 1185/2/6 1186/2/6 1188/2/6
f 1187/6/6 1185/6/6 1188/6/6
f 1183/2/6 1187/2/6 1189/2/6
f 1187/2/6 1188/2/6 1189/2/6
f 1188/2/6 1186/2/6 1190/2/6
f 1189/2/6 1188/2/6 1190/2/6
f 1171/2/6 1177/2/6 1191/2/6
f 1177/2/6 1183/2/6 1191/2/6
f 1183/2/6 1189/2/6 1191/2/6
f 1191/2/6 1189/2/6 1192/2/6
f 1192/2/6 1189/2/6 1193/2/6
f 1190/2/6 1186/2/6 1194/2/6
f 1186/2/6 1182/2/6 1195/2/6
f 1194/2/6 1186/2/6 1195/2/6
f 1182/2/6 1176/2/6 1195/2/6
f 1195/2/6 1176/2/6 1196/2/6
f 1191/6/6 1192/6/6 1197/6/6
f 1192/2/6 1193/2/6 1198/2/6
f 1197/6/6 1192/6/6 1198/6/6
f 1198/2/6 1193/2/6 1199/2/6
f 1194/2/6 1195/2/6 1200/2/6
f 1195/6/6 1196/6/6 1201/6/6
f 1200/2/6 1195/2/6 1201/2/6
f 1201/6/6 1196/6/6 1202/6/6
f 1197/2/6 1198/2/6 1203/2/6
f 1198/6/6 1199/6/6 1203/6/6
f 1199/2/6 1193/2/6 1204/2/6
f 1203/6/6 1199/6/6 1204/6/6
f 1204/2/6 1193/2/6 1205/2/6
f 1194/2/6 1200/2/6 1206/2/6
f 1200/6/6 1201/6/6 1207/6/6
f 1206/2/6 1200/2/6 1207/2/6
f 1201/2/6 1202/2/6 1208/2/6
f 1207/6/6 1201/6/6 1208/6/6
f 1203/2/6 1204/2/6 1209/2/6
f 1204/6/6 1205/6/6 1209/6/6
f 1205/2/6 1193/2/6 1210/2/6
f 1209/6/6 1205/6/6 1210/6/6
f 1210/2/6 1193/2/6 1211/2/6
f 1194/2/6 1206/2/6 1212/2/6
f 1206/6/6 1207/6/6 1213/6/6
f 1212/2/6 1206/2/6 1213/2/6
f 1207/2/6 1208/2/6 1214/2/6
f 1213/6/6 1207/6/6 1214/6/6
f 1210/6/6 1211/6/6 1215/6/6
f 1209/2/6 1210/2/6 1215/2/6
f 1215/6/6 1211/6/6 1216/6/6
f 1212/6/6 1213/6/6 1217/6/6
f 1213/2/6 1214/2/6 1218/2/6
f 1217/6/6 1213/6/6 1218/6/6
f 1197/2/6 1203/2/6 1219/2/6
f 1203/2/6 1209/2/6 1219/2/6
f 1217/2/6 1218/2/6 1219/2/6
f 1215/2/6 1216/2/6 1219/2/6
f 1209/2/6 1215/2/6 1219/2/6
f 1216/2/6 1217/2/6 1219/2/6
f 1218/2/6 1214/2/6 1220/2/6
f 1219/2/6 1218/2/6 1220/2/6
f 1214/2/6 1208/2/6 1220/2/6
f 1208/2/6 1202/2/6 1220/2/6
f 1219/4/6 1220/4/6 1221/4/6
f 1221/4/6 1220/4/6 1222/4/6
f 1222/4/6 1220/4/6 1223/4/6
f 1223/4/6 1220/4/6 1224/4/6
f 1222/4/6 1223/4/6 1225/4/6
f 1225/4/6 1223/4/6 1226/4/6
f 1226/4/6 1223/4/6 1227/4/6
f 1227/4/6 1223/4/6 1228/4/6
f 1228/4/6 1223/4/6 1229/4/6
f 1229/4/6 1223/4/6 1230/4/6
f 1225/6/6 1226/6/6 1231/6/6
f 1226/7/6 1227/7/6 1232/7/6
f 1231/6/6 1226/6/6 1232/6/6
f 1227/6/6 1228/6/6 1233/6/6
f 1232/7/6 1227/7/6 1233/7/6
f 1228/7/6 1229/7/6 1234/7/6
f 1233/6/6 1228/6/6 1234/6/6
f 1229/6/6 1230/6/6 1235/6/6
f 1234/7/6 1229/7/6 1235/7/6
f 1235/6/6 1230/6/6 1236/6/6
f 1237/4/6 1238/4/6 1239/4/6
f 1239/4/6 1238/4/6 1240/4/6
f 1241/4/6 1242/4/6 1243/4/6
f 1243/4/6 1242/4/6 1244/4/6
f 1245/2/6 1246/2/6 1247/2/6
f 1247/2/6 1246/2/6 1248/2/6
