%YAML 1.1
%TAG !u! tag:unity3d.com,2011:
--- !u!114 &11400000
MonoBehaviour:
  m_ObjectHideFlags: 0
  m_CorrespondingSourceObject: {fileID: 0}
  m_PrefabInstance: {fileID: 0}
  m_PrefabAsset: {fileID: 0}
  m_GameObject: {fileID: 0}
  m_Enabled: 1
  m_EditorHideFlags: 0
  m_Script: {fileID: 11500000, guid: bbe10a23e4b1d1e48a1fdfc767c25886, type: 3}
  m_Name: PlayerShipDron
  m_EditorClassIdentifier: 
  idShip: 1
  prefab: {fileID: 4455205037374586844, guid: 29658761f4ccc6746a900be5933d3cd5, type: 3}
  life: 2
  shipName: DronFast
  speed: 4
  maxSpeedImprove: 6
  maxLifeImprove: 5
  speedNeutralizer: 10
  waitTimeNeutralizer: 10
  waitTimeExpansiveWave: 10
  waitTimeUntilNextHit: 2
  expansiveWave: {fileID: 11400000, guid: d8f51b275cfa19d4bbbb70420379460d, type: 2}
  neutralizerRay: {fileID: 11400000, guid: e618ad0c2afb77e4a962625a930098c8, type: 2}
  soundAtDestroy: {fileID: 8300000, guid: 572a31f60e28068468bc88ca538d9c11, type: 3}
  soundMoving: {fileID: 8300000, guid: 28fd4e2a5105ffa40b5e04d5305cc71d, type: 3}
  speedImprove: 0
  lifeImprove: 0
